<svg width="16" height="11" viewBox="0 0 16 11" fill="none" xmlns="http://www.w3.org/2000/svg">
<path d="M14.5 0H1.5C0.671875 0 0 0.615885 0 1.375V9.625C0 10.3841 0.671875 11 1.5 11H14.5C15.3281 11 16 10.3841 16 9.625V1.375C16 0.615885 15.3281 0 14.5 0ZM1.5 0.916667H14.5C14.775 0.916667 15 1.12292 15 1.375V2.56094C14.3156 3.09089 13.3375 3.82135 10.2937 6.03568C9.76562 6.41953 8.725 7.34479 8 7.33333C7.275 7.34479 6.23125 6.41953 5.70625 6.03568C2.6625 3.82135 1.68438 3.09089 1 2.56094V1.375C1 1.12292 1.225 0.916667 1.5 0.916667ZM14.5 10.0833H1.5C1.225 10.0833 1 9.87708 1 9.625V3.7526C1.7125 4.28828 2.8375 5.11615 5.08437 6.75182C5.725 7.22162 6.85625 8.25573 8 8.25C9.1375 8.25859 10.2594 7.23307 10.9156 6.75182C13.1625 5.11615 14.2875 4.28828 15 3.7526V9.625C15 9.87708 14.775 10.0833 14.5 10.0833Z" fill="#00E5ED"/>
</svg>
