<?xml version="1.0" encoding="utf-8"?>
<!-- Generator: Adobe Illustrator 16.0.0, SVG Export Plug-In . SVG Version: 6.00 Build 0)  -->
<!DOCTYPE svg PUBLIC "-//W3C//DTD SVG 1.1//EN" "http://www.w3.org/Graphics/SVG/1.1/DTD/svg11.dtd" [
	<!ENTITY ns_extend "http://ns.adobe.com/Extensibility/1.0/">
	<!ENTITY ns_ai "http://ns.adobe.com/AdobeIllustrator/10.0/">
	<!ENTITY ns_graphs "http://ns.adobe.com/Graphs/1.0/">
	<!ENTITY ns_vars "http://ns.adobe.com/Variables/1.0/">
	<!ENTITY ns_imrep "http://ns.adobe.com/ImageReplacement/1.0/">
	<!ENTITY ns_sfw "http://ns.adobe.com/SaveForWeb/1.0/">
	<!ENTITY ns_custom "http://ns.adobe.com/GenericCustomNamespace/1.0/">
	<!ENTITY ns_adobe_xpath "http://ns.adobe.com/XPath/1.0/">
]>
<svg version="1.1" id="Layer_1" xmlns:x="&ns_extend;" xmlns:i="&ns_ai;" xmlns:graph="&ns_graphs;"
	 xmlns="http://www.w3.org/2000/svg" xmlns:xlink="http://www.w3.org/1999/xlink" x="0px" y="0px" width="30px" height="30px"
	 viewBox="0 0 30 30" enable-background="new 0 0 30 30" xml:space="preserve">
<metadata>
	<sfw  xmlns="&ns_sfw;">
		<slices></slices>
		<sliceSourceBounds  x="0.47" y="-27.779" width="29.061" height="23.801" bottomLeftOrigin="true"></sliceSourceBounds>
	</sfw>
</metadata>
<g display="none">
	<g display="inline">
		<g>
			<path fill="#20A2DC" d="M22.193,20.883v0.411c0,0.596,0.259,1.129,0.667,1.505c-1.354,0.55-2.312,1.877-2.312,3.426v0.822
				c0,0.228,0.185,0.41,0.411,0.41h6.575c0.228,0,0.411-0.183,0.411-0.41v-0.822c0-1.549-0.957-2.876-2.312-3.426
				c0.408-0.376,0.668-0.909,0.668-1.505v-0.822c0-1.134-0.922-2.055-2.055-2.055c-0.992,0-1.822,0.707-2.014,1.644L22.193,20.883z
				 M14.796,18.458c-0.804,0.164-1.438,0.799-1.603,1.603l-0.042,0.822v0.411c0,0.596,0.259,1.129,0.667,1.505
				c-1.353,0.55-2.311,1.877-2.311,3.426v0.822c0,0.228,0.184,0.41,0.412,0.41h6.574c0.228,0,0.412-0.183,0.412-0.41v-0.822
				c0-1.549-0.958-2.876-2.312-3.426c0.407-0.376,0.667-0.909,0.667-1.505v-0.411l-0.042-0.822
				c-0.164-0.804-0.798-1.438-1.602-1.603H14.796z M8.179,20.061c-0.191-0.937-1.021-1.644-2.013-1.644
				c-1.133,0-2.055,0.921-2.055,2.055v0.822c0,0.596,0.26,1.129,0.667,1.505c-1.353,0.55-2.31,1.877-2.31,3.426v0.822
				c0,0.228,0.184,0.41,0.411,0.41h6.575c0.227,0,0.411-0.183,0.411-0.41v-0.822c0-1.549-0.958-2.876-2.311-3.426
				c0.406-0.376,0.667-0.909,0.667-1.505v-0.411L8.179,20.061z M9.042,26.225v0.411H8.221l0.016-0.011H7.415l-0.016,0.011H4.934
				l0.016-0.011H4.127l-0.016,0.011H3.29v-0.411c0-1.586,1.291-2.877,2.876-2.877C7.752,23.348,9.042,24.639,9.042,26.225z
				 M4.934,21.294v-0.822c0-0.68,0.553-1.233,1.232-1.233s1.233,0.554,1.233,1.233v0.822c0,0.679-0.554,1.232-1.233,1.232
				S4.934,21.973,4.934,21.294z M13.08,10.213c-0.716-0.627-1.116-1.532-1.098-2.481c0.03-1.677,1.417-3.097,3.092-3.164
				c0.894-0.033,1.729,0.283,2.368,0.896c0.64,0.614,0.992,1.441,0.992,2.327c0,0.937-0.408,1.826-1.12,2.44
				c-0.594,0.511-0.933,1.225-0.933,1.957v0.003H14.03C14.015,11.451,13.672,10.732,13.08,10.213z M16.381,12.778v0.586h-2.347
				v-0.586H16.381z M16.381,13.951h0.293c0.161,0,0.293-0.131,0.293-0.293v-0.88h0.011v-0.586h-0.011v-0.003
				c0-0.561,0.266-1.113,0.729-1.512c0.841-0.725,1.323-1.776,1.323-2.884c0-1.048-0.416-2.024-1.172-2.75
				c-0.755-0.727-1.753-1.105-2.798-1.06c-1.98,0.08-3.62,1.758-3.655,3.74c-0.02,1.122,0.453,2.191,1.298,2.933
				c0.465,0.407,0.736,0.965,0.752,1.537h-0.002v0.586h0.005v0.88c0,0.163,0.131,0.293,0.293,0.293h0.293h0.587h1.172H16.381z
				 M18.083,26.225v0.411h-0.821l0.078-0.011h-0.821l-0.078,0.011h-2.467l0.078-0.011H13.23l-0.078,0.011h-0.822v-0.411
				c0-1.586,1.29-2.877,2.876-2.877C16.793,23.348,18.083,24.639,18.083,26.225z M13.974,21.294v-0.822
				c0-0.68,0.553-1.233,1.233-1.233c0.679,0,1.233,0.554,1.233,1.233v0.822c0,0.679-0.554,1.232-1.233,1.232
				C14.527,22.526,13.974,21.973,13.974,21.294z M23.015,21.294v-0.822c0-0.68,0.553-1.233,1.233-1.233
				c0.68,0,1.232,0.554,1.232,1.233v0.822c0,0.679-0.553,1.232-1.232,1.232C23.567,22.526,23.015,21.973,23.015,21.294z
				 M27.124,26.636h-0.821v-0.011H25.48v0.011h-2.466v-0.011h-0.821v0.011h-0.821v-0.411c0-1.586,1.29-2.877,2.876-2.877
				s2.876,1.291,2.876,2.877V26.636z"/>
		</g>
	</g>
	<g display="inline">
		<path fill="#20A2DC" d="M8,17.062c-0.128,0-0.256-0.049-0.354-0.146c-0.195-0.195-0.195-0.512,0-0.707l3.125-3.125
			c0.195-0.195,0.512-0.195,0.707,0s0.195,0.512,0,0.707l-3.125,3.125C8.256,17.014,8.128,17.062,8,17.062z"/>
	</g>
	<g display="inline">
		<path fill="#20A2DC" d="M22.791,17.062c-0.128,0-0.256-0.049-0.354-0.146l-3.125-3.125c-0.195-0.195-0.195-0.512,0-0.707
			s0.512-0.195,0.707,0l3.125,3.125c0.195,0.195,0.195,0.512,0,0.707C23.047,17.014,22.919,17.062,22.791,17.062z"/>
	</g>
	<g display="inline">
		<path fill="#20A2DC" d="M15.207,17.691c-0.276,0-0.5-0.224-0.5-0.5V15.41c0-0.276,0.224-0.5,0.5-0.5s0.5,0.224,0.5,0.5v1.782
			C15.707,17.468,15.483,17.691,15.207,17.691z"/>
	</g>
	<g display="inline">
		<path fill="#20A2DC" d="M20.557,21.5h-1.781c-0.276,0-0.5-0.224-0.5-0.5s0.224-0.5,0.5-0.5h1.781c0.276,0,0.5,0.224,0.5,0.5
			S20.833,21.5,20.557,21.5z"/>
	</g>
	<g display="inline">
		<path fill="#20A2DC" d="M11.427,21.354H9.646c-0.276,0-0.5-0.224-0.5-0.5s0.224-0.5,0.5-0.5h1.781c0.276,0,0.5,0.224,0.5,0.5
			S11.704,21.354,11.427,21.354z"/>
	</g>
</g>
<g id="network" display="none">
	<path display="inline" fill="#22A0DB" d="M19.318,17.179h-8.638c-0.65,0.002-1.176,0.527-1.178,1.179v5.104
		c0.002,0.648,0.528,1.175,1.178,1.177h3.141v0.784h-1.177c-0.149,0-0.284,0.085-0.35,0.216l-0.785,1.571
		c-0.097,0.195-0.019,0.43,0.174,0.528c0.054,0.026,0.114,0.041,0.176,0.041h6.281c0.217,0,0.393-0.175,0.393-0.395
		c0-0.06-0.016-0.119-0.043-0.175l-0.785-1.571c-0.066-0.131-0.201-0.216-0.35-0.216h-1.178v-0.784h3.141
		c0.65-0.002,1.176-0.528,1.18-1.177v-5.104C20.494,17.706,19.969,17.181,19.318,17.179z M17.113,26.21l0.393,0.787h-5.012
		l0.393-0.787H17.113z M14.606,25.423v-0.784h0.787v0.784H14.606z M19.711,23.462c0,0.216-0.176,0.39-0.393,0.39h-8.638
		c-0.216,0-0.393-0.174-0.393-0.39v-0.393h9.423V23.462z M19.711,22.282h-9.423v-3.925c0-0.218,0.177-0.395,0.393-0.395h8.638
		c0.217,0,0.393,0.177,0.393,0.395V22.282z"/>
	<path display="inline" fill="#22A0DB" d="M13.036,4.221H4.398C3.749,4.223,3.222,4.749,3.221,5.398v5.104
		c0.001,0.65,0.528,1.176,1.177,1.178h3.143v0.786H6.362c-0.148-0.001-0.284,0.083-0.35,0.215l-0.785,1.571
		c-0.098,0.194-0.02,0.43,0.174,0.527c0.055,0.028,0.115,0.043,0.176,0.043h6.283c0.216,0,0.392-0.179,0.391-0.395
		c0-0.061-0.014-0.12-0.042-0.176l-0.785-1.571c-0.066-0.132-0.201-0.216-0.349-0.215H9.896v-0.786h3.141
		c0.651-0.002,1.176-0.527,1.179-1.178V5.398C14.212,4.749,13.687,4.223,13.036,4.221z M10.83,13.251l0.394,0.786h-5.01l0.392-0.786
		H10.83z M8.325,12.467v-0.786H9.11v0.786H8.325z M13.43,10.503c0,0.218-0.176,0.394-0.394,0.394H4.398
		c-0.216,0-0.392-0.176-0.392-0.394v-0.392h9.423V10.503z M13.43,9.326H4.006V5.398c0-0.216,0.176-0.392,0.392-0.392h8.638
		c0.218,0,0.394,0.176,0.394,0.392V9.326z"/>
	<path display="inline" fill="#22A0DB" d="M26.387,17.179h-3.535v-1.571h-0.783v1.963c0,0.218,0.176,0.393,0.393,0.393h3.535v3.928
		h-2.947h-0.197h-1.57v0.784h1.57h0.197h3.338c0.217,0,0.393-0.175,0.393-0.393V17.57C26.779,17.355,26.604,17.179,26.387,17.179z"
		/>
	<path display="inline" fill="#22A0DB" d="M8.276,21.891H7.932H4.006v-3.928h3.534c0.216,0,0.392-0.175,0.392-0.393v-1.963H7.147
		v1.571H3.613c-0.216,0-0.392,0.177-0.392,0.392v4.712c0,0.218,0.176,0.393,0.392,0.393h4.319h0.344h0.441v-0.784H8.276z"/>
	<path display="inline" fill="#22A0DB" d="M25.602,4.221h-8.639c-0.65,0.002-1.175,0.528-1.178,1.178v5.104
		c0.003,0.65,0.528,1.176,1.178,1.178h3.141v0.786h-1.178c-0.146-0.001-0.283,0.083-0.35,0.215l-0.783,1.571
		c-0.098,0.194-0.021,0.43,0.174,0.527c0.053,0.028,0.113,0.043,0.174,0.043h6.281c0.217,0,0.393-0.179,0.393-0.395
		c0-0.061-0.014-0.12-0.041-0.176l-0.785-1.571c-0.066-0.132-0.203-0.216-0.35-0.215h-1.178v-0.786h3.141
		c0.648-0.002,1.176-0.527,1.178-1.178V5.398C26.777,4.749,26.25,4.223,25.602,4.221z M23.395,13.251l0.393,0.786h-5.012
		l0.395-0.786H23.395z M20.889,12.467v-0.786h0.787v0.786H20.889z M25.996,10.503c0,0.218-0.178,0.394-0.395,0.394h-8.639
		c-0.217,0-0.393-0.176-0.393-0.394v-0.392h9.426V10.503z M25.996,9.326H16.57V5.398c0-0.216,0.176-0.392,0.393-0.392h8.639
		c0.217,0,0.395,0.176,0.395,0.392V9.326z"/>
</g>
<path display="none" fill="#239FDA" d="M14.999,4.283c-4.257,0-7.72,3.463-7.72,7.72c0,2.247,0.979,4.379,2.688,5.848l0.133,0.116
	l-0.382,9.071c-0.001,0.298,0.161,0.553,0.41,0.666c0.253,0.116,0.541,0.075,0.754-0.109l4.117-3.547l4.119,3.547
	c0.211,0.183,0.516,0.221,0.748,0.112c0.254-0.116,0.416-0.371,0.416-0.65l-0.383-9.088l0.133-0.116
	c1.709-1.472,2.688-3.604,2.688-5.85C22.721,7.746,19.257,4.283,14.999,4.283z M15.482,23.326c-0.284-0.267-0.693-0.257-0.955-0.012
	l-3.931,3.385l0.341-8.106l0.507,0.264c2.215,1.153,4.897,1.153,7.109,0l0.507-0.264l0.341,8.106L15.482,23.326z M14.999,18.858
	c-3.78,0-6.856-3.075-6.856-6.855s3.076-6.856,6.856-6.856c3.781,0,6.856,3.076,6.856,6.856S18.78,18.858,14.999,18.858z"/>
<g display="none">
	<g display="inline">
		<g>
			<path fill="#249FD9" d="M23.557,8.563c0-0.103-0.039-0.202-0.111-0.276l-3.889-3.89c-0.074-0.072-0.174-0.112-0.275-0.111V4.283
				H7.608c-0.645,0-1.167,0.522-1.167,1.167v21.011c0,0.645,0.522,1.167,1.167,1.167h14.785c0.645,0,1.166-0.522,1.166-1.167V8.563
				H23.557z M19.668,5.612l2.564,2.562h-2.174c-0.215,0-0.391-0.174-0.391-0.389V5.612z M22.783,26.462
				c0,0.215-0.174,0.389-0.391,0.389H7.608c-0.216,0-0.39-0.174-0.39-0.389V5.451c0-0.215,0.174-0.389,0.39-0.389h11.283v2.724
				c0,0.645,0.521,1.167,1.168,1.167h2.725V26.462z"/>
		</g>
	</g>
	<g display="inline">
		<g>
			<path fill="#249FD9" d="M10.332,14.79c-0.646,0-1.167,0.522-1.167,1.167s0.521,1.168,1.167,1.168
				c0.644,0,1.167-0.523,1.167-1.168S10.976,14.79,10.332,14.79z M10.332,16.346c-0.216,0-0.39-0.175-0.39-0.39
				s0.174-0.389,0.39-0.389c0.214,0,0.388,0.174,0.388,0.389S10.545,16.346,10.332,16.346z"/>
		</g>
	</g>
	<g display="inline">
		<g>
			<rect x="13.055" y="15.567" fill="#249FD9" width="7.781" height="0.779"/>
		</g>
	</g>
	<g display="inline">
		<g>
			<path fill="#249FD9" d="M10.332,10.898c-0.646,0-1.167,0.522-1.167,1.167c0,0.645,0.521,1.167,1.167,1.167
				c0.644,0,1.167-0.522,1.167-1.167C11.498,11.42,10.976,10.898,10.332,10.898z M10.332,12.454c-0.216,0-0.39-0.173-0.39-0.389
				c0-0.214,0.174-0.389,0.39-0.389c0.214,0,0.388,0.175,0.388,0.389C10.72,12.281,10.545,12.454,10.332,12.454z"/>
		</g>
	</g>
	<g display="inline">
		<g>
			<rect x="13.055" y="11.676" fill="#249FD9" width="7.781" height="0.778"/>
		</g>
	</g>
	<g display="inline">
		<g>
			<path fill="#249FD9" d="M10.332,18.68c-0.646,0-1.167,0.522-1.167,1.168c0,0.644,0.521,1.166,1.167,1.166
				c0.644,0,1.167-0.522,1.167-1.166C11.498,19.202,10.976,18.68,10.332,18.68z M10.332,20.236c-0.216,0-0.39-0.174-0.39-0.389
				c0-0.216,0.174-0.39,0.39-0.39c0.214,0,0.388,0.174,0.388,0.39C10.72,20.062,10.545,20.236,10.332,20.236z"/>
		</g>
	</g>
	<g display="inline">
		<g>
			<rect x="13.055" y="19.458" fill="#249FD9" width="7.781" height="0.778"/>
		</g>
	</g>
	<g display="inline">
		<g>
			<path fill="#249FD9" d="M10.332,22.571c-0.646,0-1.167,0.522-1.167,1.167s0.521,1.167,1.167,1.167
				c0.644,0,1.167-0.522,1.167-1.167S10.976,22.571,10.332,22.571z M10.332,24.128c-0.216,0-0.39-0.175-0.39-0.39
				c0-0.216,0.174-0.389,0.39-0.389c0.214,0,0.388,0.173,0.388,0.389C10.72,23.953,10.545,24.128,10.332,24.128z"/>
		</g>
	</g>
	<g display="inline">
		<g>
			<rect x="13.055" y="23.35" fill="#249FD9" width="7.781" height="0.778"/>
		</g>
	</g>
</g>
<g display="none">
	<path display="inline" fill="#259ED9" d="M26.328,18.659l0.241,1.1c0.037,0.17,0.187,0.291,0.361,0.292
		c0.026,0,0.053-0.003,0.079-0.008l0,0c0.2-0.044,0.327-0.241,0.283-0.442L27.052,18.5c-0.044-0.201-0.24-0.327-0.441-0.283
		C26.411,18.261,26.284,18.458,26.328,18.659z"/>
	<path display="inline" fill="#259ED9" d="M27.934,22.552l-0.077-0.356c-0.044-0.2-0.242-0.326-0.441-0.282
		c-0.2,0.044-0.326,0.241-0.283,0.44l0.077,0.356c0.015,0.066,0.022,0.135,0.022,0.204c0.001,0.534-0.434,0.969-0.968,0.969h-1.284
		c-0.506-0.714-1.293-1.214-2.199-1.339c0.581-0.513,0.948-1.263,0.95-2.098c0-1.546-1.254-2.8-2.8-2.8
		c-1.545,0-2.799,1.253-2.799,2.799c0,0.836,0.366,1.586,0.947,2.1c-0.905,0.125-1.691,0.625-2.197,1.34h-3.761
		c-0.506-0.715-1.293-1.216-2.2-1.341c0.581-0.513,0.948-1.263,0.949-2.098c0-1.546-1.253-2.8-2.799-2.8s-2.799,1.253-2.799,2.799
		c0,0.836,0.367,1.586,0.948,2.1c-0.906,0.125-1.692,0.625-2.196,1.338H3.737c-0.069,0-0.137-0.008-0.205-0.022
		c-0.523-0.113-0.855-0.628-0.741-1.15l1.571-7.225c0.145-0.647,0.717-1.108,1.379-1.111H24.26c0.663,0.003,1.235,0.464,1.38,1.111
		l0.125,0.58c0.044,0.199,0.241,0.326,0.441,0.283c0.2-0.044,0.327-0.241,0.283-0.442l-0.127-0.578
		c-0.218-0.987-1.093-1.691-2.104-1.696h-4.614v-1.248c-0.002-1.636-1.218-2.987-2.794-3.203c0.581-0.513,0.949-1.263,0.95-2.099
		c0-1.546-1.253-2.799-2.798-2.799c-1.546,0-2.799,1.252-2.8,2.799c0,0.836,0.367,1.586,0.948,2.099
		c-1.575,0.218-2.789,1.568-2.791,3.203v1.248H5.742c-1.012,0.003-1.886,0.708-2.104,1.696l-1.572,7.224
		c-0.026,0.118-0.039,0.24-0.039,0.361c0,0.945,0.766,1.711,1.71,1.711h0.894c-0.13,0.351-0.202,0.729-0.202,1.124v1.567
		c0,0.206,0.167,0.371,0.371,0.371h8.542c0,0,0,0,0.001,0c0.205,0,0.371-0.165,0.371-0.371v-1.567c0-0.396-0.071-0.772-0.201-1.122
		h2.978c-0.13,0.35-0.2,0.727-0.201,1.122v1.567c0,0.206,0.165,0.371,0.371,0.371h8.541c0.001,0,0.002,0,0.002,0
		c0.204,0,0.37-0.165,0.37-0.371v-1.567c0-0.396-0.071-0.773-0.202-1.124h0.893l0,0c0.122,0,0.243-0.013,0.362-0.039
		C27.55,24.385,28.135,23.474,27.934,22.552z M12.943,7.084c0-1.136,0.921-2.058,2.058-2.058V5.024
		c1.136,0.001,2.057,0.923,2.057,2.059s-0.921,2.058-2.057,2.058C13.865,9.142,12.943,8.221,12.943,7.084z M11.103,12.384
		c0.001-1.376,1.117-2.492,2.494-2.493h2.813c1.376,0.002,2.489,1.117,2.491,2.493v1.198h-7.8L11.103,12.384z M7.013,20.448
		c0-1.137,0.921-2.059,2.058-2.059v-0.002c1.137,0.001,2.058,0.923,2.059,2.06c0,1.137-0.921,2.058-2.058,2.058
		C7.935,22.506,7.014,21.584,7.013,20.448z M12.971,26.944H5.17l-0.001-1.196c0.001-1.377,1.117-2.492,2.494-2.494h2.816
		c1.376,0.003,2.491,1.118,2.493,2.494V26.944z M18.873,20.448c0-1.137,0.921-2.059,2.058-2.059v-0.002
		c1.136,0.001,2.057,0.923,2.058,2.06c0,1.137-0.921,2.058-2.058,2.058C19.794,22.506,18.873,21.584,18.873,20.448z M24.83,26.944
		h-7.8l0.002-1.196c0.001-1.377,1.116-2.492,2.493-2.494h2.813c1.376,0.003,2.49,1.118,2.491,2.494V26.944z"/>
</g>
<path fill="#269DD8" d="M14.562,6.3c-1.2,0.116-1.987,1.336-1.841,2.533l0,0c0.122,0.986,0.865,1.781,1.841,1.97v4.146H4.071
	c-0.963,0-1.723,0.798-1.723,1.761v5.539c-1.246,0.229-2.069,1.424-1.841,2.67c0.229,1.245,1.424,2.068,2.669,1.84
	s2.069-1.423,1.841-2.669c-0.17-0.92-0.881-1.646-1.797-1.832v-5.548c-0.012-0.479,0.367-0.877,0.846-0.889c0.002,0,0.004,0,0.005,0
	h4.385v2.805c-1.241,0.26-2.036,1.477-1.776,2.717s1.476,2.036,2.717,1.776s2.036-1.477,1.776-2.718
	c-0.192-0.917-0.922-1.625-1.845-1.789v-2.791h5.234v6.434c-1.242,0.24-2.056,1.444-1.814,2.688c0.209,1.076,1.15,1.854,2.246,1.856
	c0.096,0,0.191-0.006,0.287-0.018c1.256-0.157,2.149-1.302,1.994-2.559l0,0c-0.122-0.985-0.864-1.781-1.84-1.971v-6.432h5.235v2.707
	c-1.248,0.221-2.08,1.411-1.858,2.658c0.193,1.096,1.146,1.894,2.257,1.894c1.268,0.001,2.295-1.024,2.296-2.292
	c0.001-1.086-0.76-2.023-1.822-2.246v-2.721h4.384c0.479,0.009,0.86,0.405,0.851,0.885c0,0.001,0,0.002,0,0.004v5.549
	c-1.241,0.254-2.041,1.466-1.787,2.707c0.217,1.067,1.156,1.834,2.245,1.834c1.268,0,2.295-1.027,2.295-2.296
	c0-0.094-0.006-0.188-0.017-0.28l0,0c-0.123-0.994-0.879-1.795-1.864-1.975v-5.539c0-0.963-0.76-1.761-1.723-1.761H15.435v-4.146
	c1.244-0.241,2.057-1.446,1.815-2.689c-0.179-0.918-0.886-1.711-1.815-1.814C15.219,6.275,14.78,6.279,14.562,6.3z M4.183,24.507
	c0,0.785-0.637,1.421-1.422,1.421s-1.422-0.636-1.422-1.421s0.637-1.422,1.422-1.422l0,0C3.545,23.086,4.182,23.722,4.183,24.507z
	 M10.35,20.871c0,0.785-0.637,1.422-1.423,1.422c-0.785,0-1.422-0.637-1.422-1.422c0.001-0.785,0.637-1.421,1.422-1.421
	C9.712,19.451,10.349,20.086,10.35,20.871L10.35,20.871z M27.24,23.085c0.716,0.001,1.319,0.535,1.407,1.247l0,0
	c0.097,0.778-0.456,1.488-1.235,1.586c-0.78,0.096-1.489-0.458-1.586-1.236c-0.097-0.779,0.457-1.489,1.236-1.585l0,0
	C27.121,23.088,27.18,23.085,27.24,23.085L27.24,23.085z M21.073,19.365c0.787,0,1.426,0.639,1.426,1.427
	c0,0.787-0.639,1.425-1.427,1.425c-0.787,0-1.426-0.639-1.426-1.426c0-0.719,0.536-1.325,1.249-1.414
	C20.955,19.369,21.015,19.365,21.073,19.365L21.073,19.365z M15.873,23.386c0.619,0.482,0.729,1.376,0.247,1.995
	s-1.376,0.729-1.995,0.246c-0.619-0.482-0.73-1.375-0.248-1.994c0.232-0.298,0.573-0.491,0.947-0.537
	c0.059-0.008,0.118-0.011,0.178-0.011C15.317,23.085,15.624,23.19,15.873,23.386L15.873,23.386z M15.873,7.431
	c0.619,0.483,0.729,1.376,0.247,1.995s-1.375,0.73-1.995,0.248c-0.298-0.232-0.49-0.573-0.536-0.947l0,0
	c-0.098-0.779,0.456-1.489,1.235-1.585C15.199,7.095,15.576,7.199,15.873,7.431L15.873,7.431z"/>
</svg>
