<?xml version="1.0" encoding="utf-8"?>
<!-- Generator: Adobe Illustrator 16.0.0, SVG Export Plug-In . SVG Version: 6.00 Build 0)  -->
<!DOCTYPE svg PUBLIC "-//W3C//DTD SVG 1.1//EN" "http://www.w3.org/Graphics/SVG/1.1/DTD/svg11.dtd" [
	<!ENTITY ns_extend "http://ns.adobe.com/Extensibility/1.0/">
	<!ENTITY ns_ai "http://ns.adobe.com/AdobeIllustrator/10.0/">
	<!ENTITY ns_graphs "http://ns.adobe.com/Graphs/1.0/">
	<!ENTITY ns_vars "http://ns.adobe.com/Variables/1.0/">
	<!ENTITY ns_imrep "http://ns.adobe.com/ImageReplacement/1.0/">
	<!ENTITY ns_sfw "http://ns.adobe.com/SaveForWeb/1.0/">
	<!ENTITY ns_custom "http://ns.adobe.com/GenericCustomNamespace/1.0/">
	<!ENTITY ns_adobe_xpath "http://ns.adobe.com/XPath/1.0/">
]>
<svg version="1.1" id="Layer_1" xmlns:x="&ns_extend;" xmlns:i="&ns_ai;" xmlns:graph="&ns_graphs;"
	 xmlns="http://www.w3.org/2000/svg" xmlns:xlink="http://www.w3.org/1999/xlink" x="0px" y="0px" width="30px" height="30px"
	 viewBox="0 0 30 30" enable-background="new 0 0 30 30" xml:space="preserve">
<metadata>
	<sfw  xmlns="&ns_sfw;">
		<slices></slices>
		<sliceSourceBounds  x="2.468" y="-27.779" width="25.479" height="23.801" bottomLeftOrigin="true"></sliceSourceBounds>
	</sfw>
</metadata>
<g display="none">
	<g display="inline">
		<g>
			<path fill="#20A2DC" d="M22.193,20.883v0.411c0,0.596,0.259,1.129,0.667,1.505c-1.354,0.55-2.312,1.877-2.312,3.426v0.822
				c0,0.228,0.185,0.41,0.411,0.41h6.575c0.228,0,0.411-0.183,0.411-0.41v-0.822c0-1.549-0.957-2.876-2.312-3.426
				c0.408-0.376,0.668-0.909,0.668-1.505v-0.822c0-1.134-0.922-2.055-2.055-2.055c-0.992,0-1.822,0.707-2.014,1.644L22.193,20.883z
				 M14.796,18.458c-0.804,0.164-1.438,0.799-1.603,1.603l-0.042,0.822v0.411c0,0.596,0.259,1.129,0.667,1.505
				c-1.353,0.55-2.311,1.877-2.311,3.426v0.822c0,0.228,0.184,0.41,0.412,0.41h6.574c0.228,0,0.412-0.183,0.412-0.41v-0.822
				c0-1.549-0.958-2.876-2.312-3.426c0.407-0.376,0.667-0.909,0.667-1.505v-0.411l-0.042-0.822
				c-0.164-0.804-0.798-1.438-1.602-1.603H14.796z M8.179,20.061c-0.191-0.937-1.021-1.644-2.013-1.644
				c-1.133,0-2.055,0.921-2.055,2.055v0.822c0,0.596,0.26,1.129,0.667,1.505c-1.353,0.55-2.31,1.877-2.31,3.426v0.822
				c0,0.228,0.184,0.41,0.411,0.41h6.575c0.227,0,0.411-0.183,0.411-0.41v-0.822c0-1.549-0.958-2.876-2.311-3.426
				c0.406-0.376,0.667-0.909,0.667-1.505v-0.411L8.179,20.061z M9.042,26.225v0.411H8.221l0.016-0.011H7.415l-0.016,0.011H4.934
				l0.016-0.011H4.127l-0.016,0.011H3.29v-0.411c0-1.586,1.291-2.877,2.876-2.877C7.752,23.348,9.042,24.639,9.042,26.225z
				 M4.934,21.294v-0.822c0-0.68,0.553-1.233,1.232-1.233s1.233,0.554,1.233,1.233v0.822c0,0.679-0.554,1.232-1.233,1.232
				S4.934,21.973,4.934,21.294z M13.08,10.213c-0.716-0.627-1.116-1.532-1.098-2.481c0.03-1.677,1.417-3.097,3.092-3.164
				c0.894-0.033,1.729,0.283,2.368,0.896c0.64,0.614,0.992,1.441,0.992,2.327c0,0.937-0.408,1.826-1.12,2.44
				c-0.594,0.511-0.933,1.225-0.933,1.957v0.003H14.03C14.015,11.451,13.672,10.732,13.08,10.213z M16.381,12.778v0.586h-2.347
				v-0.586H16.381z M16.381,13.951h0.293c0.161,0,0.293-0.131,0.293-0.293v-0.88h0.011v-0.586h-0.011v-0.003
				c0-0.561,0.266-1.113,0.729-1.512c0.841-0.725,1.323-1.776,1.323-2.884c0-1.048-0.416-2.024-1.172-2.75
				c-0.755-0.727-1.753-1.105-2.798-1.06c-1.98,0.08-3.62,1.758-3.655,3.74c-0.02,1.122,0.453,2.191,1.298,2.933
				c0.465,0.407,0.736,0.965,0.752,1.537h-0.002v0.586h0.005v0.88c0,0.163,0.131,0.293,0.293,0.293h0.293h0.587h1.172H16.381z
				 M18.083,26.225v0.411h-0.821l0.078-0.011h-0.821l-0.078,0.011h-2.467l0.078-0.011H13.23l-0.078,0.011h-0.822v-0.411
				c0-1.586,1.29-2.877,2.876-2.877C16.793,23.348,18.083,24.639,18.083,26.225z M13.974,21.294v-0.822
				c0-0.68,0.553-1.233,1.233-1.233c0.679,0,1.233,0.554,1.233,1.233v0.822c0,0.679-0.554,1.232-1.233,1.232
				C14.527,22.526,13.974,21.973,13.974,21.294z M23.015,21.294v-0.822c0-0.68,0.553-1.233,1.233-1.233
				c0.68,0,1.232,0.554,1.232,1.233v0.822c0,0.679-0.553,1.232-1.232,1.232C23.567,22.526,23.015,21.973,23.015,21.294z
				 M27.124,26.636h-0.821v-0.011H25.48v0.011h-2.466v-0.011h-0.821v0.011h-0.821v-0.411c0-1.586,1.29-2.877,2.876-2.877
				s2.876,1.291,2.876,2.877V26.636z"/>
		</g>
	</g>
	<g display="inline">
		<path fill="#20A2DC" d="M8,17.062c-0.128,0-0.256-0.049-0.354-0.146c-0.195-0.195-0.195-0.512,0-0.707l3.125-3.125
			c0.195-0.195,0.512-0.195,0.707,0s0.195,0.512,0,0.707l-3.125,3.125C8.256,17.014,8.128,17.062,8,17.062z"/>
	</g>
	<g display="inline">
		<path fill="#20A2DC" d="M22.791,17.062c-0.128,0-0.256-0.049-0.354-0.146l-3.125-3.125c-0.195-0.195-0.195-0.512,0-0.707
			s0.512-0.195,0.707,0l3.125,3.125c0.195,0.195,0.195,0.512,0,0.707C23.047,17.014,22.919,17.062,22.791,17.062z"/>
	</g>
	<g display="inline">
		<path fill="#20A2DC" d="M15.207,17.691c-0.276,0-0.5-0.224-0.5-0.5V15.41c0-0.276,0.224-0.5,0.5-0.5s0.5,0.224,0.5,0.5v1.782
			C15.707,17.468,15.483,17.691,15.207,17.691z"/>
	</g>
	<g display="inline">
		<path fill="#20A2DC" d="M20.557,21.5h-1.781c-0.276,0-0.5-0.224-0.5-0.5s0.224-0.5,0.5-0.5h1.781c0.276,0,0.5,0.224,0.5,0.5
			S20.833,21.5,20.557,21.5z"/>
	</g>
	<g display="inline">
		<path fill="#20A2DC" d="M11.427,21.354H9.646c-0.276,0-0.5-0.224-0.5-0.5s0.224-0.5,0.5-0.5h1.781c0.276,0,0.5,0.224,0.5,0.5
			S11.704,21.354,11.427,21.354z"/>
	</g>
</g>
<g id="network" display="none">
	<path display="inline" fill="#22A0DB" d="M19.318,17.179h-8.638c-0.65,0.002-1.176,0.527-1.178,1.179v5.104
		c0.002,0.648,0.528,1.175,1.178,1.177h3.141v0.784h-1.177c-0.149,0-0.284,0.085-0.35,0.216l-0.785,1.571
		c-0.097,0.195-0.019,0.43,0.174,0.528c0.054,0.026,0.114,0.041,0.176,0.041h6.281c0.217,0,0.393-0.175,0.393-0.395
		c0-0.06-0.016-0.119-0.043-0.175l-0.785-1.571c-0.066-0.131-0.201-0.216-0.35-0.216h-1.178v-0.784h3.141
		c0.65-0.002,1.176-0.528,1.18-1.177v-5.104C20.494,17.706,19.969,17.181,19.318,17.179z M17.113,26.21l0.393,0.787h-5.012
		l0.393-0.787H17.113z M14.606,25.423v-0.784h0.787v0.784H14.606z M19.711,23.462c0,0.216-0.176,0.39-0.393,0.39h-8.638
		c-0.216,0-0.393-0.174-0.393-0.39v-0.393h9.423V23.462z M19.711,22.282h-9.423v-3.925c0-0.218,0.177-0.395,0.393-0.395h8.638
		c0.217,0,0.393,0.177,0.393,0.395V22.282z"/>
	<path display="inline" fill="#22A0DB" d="M13.036,4.221H4.398C3.749,4.223,3.222,4.749,3.221,5.398v5.104
		c0.001,0.65,0.528,1.176,1.177,1.178h3.143v0.786H6.362c-0.148-0.001-0.284,0.083-0.35,0.215l-0.785,1.571
		c-0.098,0.194-0.02,0.43,0.174,0.527c0.055,0.028,0.115,0.043,0.176,0.043h6.283c0.216,0,0.392-0.179,0.391-0.395
		c0-0.061-0.014-0.12-0.042-0.176l-0.785-1.571c-0.066-0.132-0.201-0.216-0.349-0.215H9.896v-0.786h3.141
		c0.651-0.002,1.176-0.527,1.179-1.178V5.398C14.212,4.749,13.687,4.223,13.036,4.221z M10.83,13.251l0.394,0.786h-5.01l0.392-0.786
		H10.83z M8.325,12.467v-0.786H9.11v0.786H8.325z M13.43,10.503c0,0.218-0.176,0.394-0.394,0.394H4.398
		c-0.216,0-0.392-0.176-0.392-0.394v-0.392h9.423V10.503z M13.43,9.326H4.006V5.398c0-0.216,0.176-0.392,0.392-0.392h8.638
		c0.218,0,0.394,0.176,0.394,0.392V9.326z"/>
	<path display="inline" fill="#22A0DB" d="M26.387,17.179h-3.535v-1.571h-0.783v1.963c0,0.218,0.176,0.393,0.393,0.393h3.535v3.928
		h-2.947h-0.197h-1.57v0.784h1.57h0.197h3.338c0.217,0,0.393-0.175,0.393-0.393V17.57C26.779,17.355,26.604,17.179,26.387,17.179z"
		/>
	<path display="inline" fill="#22A0DB" d="M8.276,21.891H7.932H4.006v-3.928h3.534c0.216,0,0.392-0.175,0.392-0.393v-1.963H7.147
		v1.571H3.613c-0.216,0-0.392,0.177-0.392,0.392v4.712c0,0.218,0.176,0.393,0.392,0.393h4.319h0.344h0.441v-0.784H8.276z"/>
	<path display="inline" fill="#22A0DB" d="M25.602,4.221h-8.639c-0.65,0.002-1.175,0.528-1.178,1.178v5.104
		c0.003,0.65,0.528,1.176,1.178,1.178h3.141v0.786h-1.178c-0.146-0.001-0.283,0.083-0.35,0.215l-0.783,1.571
		c-0.098,0.194-0.021,0.43,0.174,0.527c0.053,0.028,0.113,0.043,0.174,0.043h6.281c0.217,0,0.393-0.179,0.393-0.395
		c0-0.061-0.014-0.12-0.041-0.176l-0.785-1.571c-0.066-0.132-0.203-0.216-0.35-0.215h-1.178v-0.786h3.141
		c0.648-0.002,1.176-0.527,1.178-1.178V5.398C26.777,4.749,26.25,4.223,25.602,4.221z M23.395,13.251l0.393,0.786h-5.012
		l0.395-0.786H23.395z M20.889,12.467v-0.786h0.787v0.786H20.889z M25.996,10.503c0,0.218-0.178,0.394-0.395,0.394h-8.639
		c-0.217,0-0.393-0.176-0.393-0.394v-0.392h9.426V10.503z M25.996,9.326H16.57V5.398c0-0.216,0.176-0.392,0.393-0.392h8.639
		c0.217,0,0.395,0.176,0.395,0.392V9.326z"/>
</g>
<path display="none" fill="#239FDA" d="M14.999,4.283c-4.257,0-7.72,3.463-7.72,7.72c0,2.247,0.979,4.379,2.688,5.848l0.133,0.116
	l-0.382,9.071c-0.001,0.298,0.161,0.553,0.41,0.666c0.253,0.116,0.541,0.075,0.754-0.109l4.117-3.547l4.119,3.547
	c0.211,0.183,0.516,0.221,0.748,0.112c0.254-0.116,0.416-0.371,0.416-0.65l-0.383-9.088l0.133-0.116
	c1.709-1.472,2.688-3.604,2.688-5.85C22.721,7.746,19.257,4.283,14.999,4.283z M15.482,23.326c-0.284-0.267-0.693-0.257-0.955-0.012
	l-3.931,3.385l0.341-8.106l0.507,0.264c2.215,1.153,4.897,1.153,7.109,0l0.507-0.264l0.341,8.106L15.482,23.326z M14.999,18.858
	c-3.78,0-6.856-3.075-6.856-6.855s3.076-6.856,6.856-6.856c3.781,0,6.856,3.076,6.856,6.856S18.78,18.858,14.999,18.858z"/>
<g>
	<g>
		<g>
			<path fill="#249FD9" d="M23.557,8.563c0-0.103-0.039-0.202-0.111-0.276l-3.889-3.89c-0.074-0.072-0.174-0.112-0.275-0.111V4.283
				H7.608c-0.645,0-1.167,0.522-1.167,1.167v21.011c0,0.645,0.522,1.167,1.167,1.167h14.785c0.645,0,1.166-0.522,1.166-1.167V8.563
				H23.557z M19.668,5.612l2.564,2.562h-2.174c-0.215,0-0.391-0.174-0.391-0.389V5.612z M22.783,26.462
				c0,0.215-0.174,0.389-0.391,0.389H7.608c-0.216,0-0.39-0.174-0.39-0.389V5.451c0-0.215,0.174-0.389,0.39-0.389h11.283v2.724
				c0,0.645,0.521,1.167,1.168,1.167h2.725V26.462z"/>
		</g>
	</g>
	<g>
		<g>
			<path fill="#249FD9" d="M10.332,14.79c-0.646,0-1.167,0.522-1.167,1.167s0.521,1.168,1.167,1.168
				c0.644,0,1.167-0.523,1.167-1.168S10.976,14.79,10.332,14.79z M10.332,16.346c-0.216,0-0.39-0.175-0.39-0.39
				s0.174-0.389,0.39-0.389c0.214,0,0.388,0.174,0.388,0.389S10.545,16.346,10.332,16.346z"/>
		</g>
	</g>
	<g>
		<g>
			<rect x="13.055" y="15.567" fill="#249FD9" width="7.781" height="0.779"/>
		</g>
	</g>
	<g>
		<g>
			<path fill="#249FD9" d="M10.332,10.898c-0.646,0-1.167,0.522-1.167,1.167c0,0.645,0.521,1.167,1.167,1.167
				c0.644,0,1.167-0.522,1.167-1.167C11.498,11.42,10.976,10.898,10.332,10.898z M10.332,12.454c-0.216,0-0.39-0.173-0.39-0.389
				c0-0.214,0.174-0.389,0.39-0.389c0.214,0,0.388,0.175,0.388,0.389C10.72,12.281,10.545,12.454,10.332,12.454z"/>
		</g>
	</g>
	<g>
		<g>
			<rect x="13.055" y="11.676" fill="#249FD9" width="7.781" height="0.778"/>
		</g>
	</g>
	<g>
		<g>
			<path fill="#249FD9" d="M10.332,18.68c-0.646,0-1.167,0.522-1.167,1.168c0,0.644,0.521,1.166,1.167,1.166
				c0.644,0,1.167-0.522,1.167-1.166C11.498,19.202,10.976,18.68,10.332,18.68z M10.332,20.236c-0.216,0-0.39-0.174-0.39-0.389
				c0-0.216,0.174-0.39,0.39-0.39c0.214,0,0.388,0.174,0.388,0.39C10.72,20.062,10.545,20.236,10.332,20.236z"/>
		</g>
	</g>
	<g>
		<g>
			<rect x="13.055" y="19.458" fill="#249FD9" width="7.781" height="0.778"/>
		</g>
	</g>
	<g>
		<g>
			<path fill="#249FD9" d="M10.332,22.571c-0.646,0-1.167,0.522-1.167,1.167s0.521,1.167,1.167,1.167
				c0.644,0,1.167-0.522,1.167-1.167S10.976,22.571,10.332,22.571z M10.332,24.128c-0.216,0-0.39-0.175-0.39-0.39
				c0-0.216,0.174-0.389,0.39-0.389c0.214,0,0.388,0.173,0.388,0.389C10.72,23.953,10.545,24.128,10.332,24.128z"/>
		</g>
	</g>
	<g>
		<g>
			<rect x="13.055" y="23.35" fill="#249FD9" width="7.781" height="0.778"/>
		</g>
	</g>
</g>
</svg>
