<?xml version="1.0" encoding="utf-8"?>
<!-- Generator: Adobe Illustrator 25.2.3, SVG Export Plug-In . SVG Version: 6.00 Build 0)  -->
<svg version="1.1" id="Capa_1" xmlns="http://www.w3.org/2000/svg" xmlns:xlink="http://www.w3.org/1999/xlink" x="0px" y="0px"
	 viewBox="0 0 375 375" style="enable-background:new 0 0 375 375;" xml:space="preserve">
<style type="text/css">
	.st0{opacity:0.86;}
	.st1{fill:url(#XMLID_20_);}
	.st2{fill:url(#SVGID_1_);}
	.st3{fill:url(#XMLID_21_);}
	.st4{fill:url(#SVGID_2_);}
	.st5{fill:url(#XMLID_25_);}
	.st6{fill:url(#SVGID_3_);}
	.st7{fill:url(#XMLID_26_);}
	.st8{fill:url(#SVGID_4_);}
	.st9{fill:url(#XMLID_27_);}
	.st10{fill:url(#SVGID_5_);}
	.st11{fill:url(#XMLID_28_);}
	.st12{fill:url(#SVGID_6_);}
	.st13{fill:#FFFFFF;stroke:#5271FF;stroke-miterlimit:10;}
	.st14{fill:#00E5ED;}
	.st15{fill:#E7FAFB;}
	.st16{fill:#5271FF;}
	.st17{fill:#FFFFFF;}
	.st18{clip-path:url(#SVGID_8_);}
	.st19{opacity:0.66;fill:#FFFFFF;}
	.st20{opacity:0.89;fill:#FFFFFF;}
	.st21{opacity:0.98;fill:#FFFFFF;}
	.st22{opacity:0.32;fill:#FFFFFF;}
	.st23{opacity:0.48;fill:#FFFFFF;}
	.st24{opacity:0.67;fill:#FFFFFF;}
	.st25{opacity:0.71;fill:#FFFFFF;}
	.st26{opacity:0.56;fill:#FFFFFF;}
	.st27{opacity:0.7;fill:#FFFFFF;}
	.st28{opacity:0.95;fill:#FFFFFF;}
	.st29{opacity:0.23;fill:#FFFFFF;}
	.st30{opacity:0.41;fill:#FFFFFF;}
	.st31{opacity:0.43;fill:#FFFFFF;}
	.st32{opacity:0.83;fill:#FFFFFF;}
	.st33{opacity:0.69;fill:#FFFFFF;}
	.st34{opacity:0.44;fill:#FFFFFF;}
	.st35{opacity:0.47;fill:#FFFFFF;}
	.st36{opacity:0.52;fill:#FFFFFF;}
	.st37{opacity:0.88;fill:#FFFFFF;}
	.st38{opacity:0.77;fill:#FFFFFF;}
	.st39{opacity:0.62;fill:#FFFFFF;}
	.st40{opacity:0.6;fill:#FFFFFF;}
	.st41{opacity:0.21;fill:#FFFFFF;}
	.st42{opacity:0.81;fill:#FFFFFF;}
	.st43{opacity:0.31;fill:#FFFFFF;}
	.st44{opacity:0.92;fill:#FFFFFF;}
	.st45{opacity:0.2;fill:#FFFFFF;}
	.st46{opacity:0.68;fill:#FFFFFF;}
	.st47{opacity:0.61;fill:#FFFFFF;}
	.st48{opacity:0.85;fill:#FFFFFF;}
	.st49{opacity:0.38;fill:#FFFFFF;}
	.st50{opacity:0.35;fill:#FFFFFF;}
	.st51{opacity:0.33;fill:#FFFFFF;}
	.st52{opacity:0;}
	.st53{opacity:0.86;fill:url(#SVGID_9_);}
	.st54{opacity:0.86;fill:url(#SVGID_10_);}
	.st55{opacity:0.86;fill:url(#SVGID_11_);}
</style>
<g id="XMLID_1_" class="st0">
	<g id="XMLID_17_">
		<g>
			<linearGradient id="XMLID_20_" gradientUnits="userSpaceOnUse" x1="293.683" y1="156.8315" x2="358.069" y2="156.8315">
				<stop  offset="6.149733e-02" style="stop-color:#00E5ED"/>
				<stop  offset="0.1899" style="stop-color:#04E5ED;stop-opacity:0.9316"/>
				<stop  offset="0.3091" style="stop-color:#0FE7EE;stop-opacity:0.8681"/>
				<stop  offset="0.4248" style="stop-color:#22E8EF;stop-opacity:0.8064"/>
				<stop  offset="0.5383" style="stop-color:#3CEBF1;stop-opacity:0.746"/>
				<stop  offset="0.6502" style="stop-color:#5EEFF4;stop-opacity:0.6863"/>
				<stop  offset="0.761" style="stop-color:#88F3F7;stop-opacity:0.6273"/>
				<stop  offset="0.8707" style="stop-color:#BAF8FA;stop-opacity:0.5689"/>
				<stop  offset="0.9772" style="stop-color:#F2FEFE;stop-opacity:0.5122"/>
				<stop  offset="1" style="stop-color:#FFFFFF;stop-opacity:0.5"/>
			</linearGradient>
			<path id="XMLID_18_" class="st1" d="M301.5,130.3l-2.5-3.6l6.5-3.9c0.3-0.2,0.5-0.4,0.8-0.5l0.1-0.1l0,0c2.1-1,4.8-0.8,7.7,1
				c1.7,1,3.3,2.4,4.7,4.1l4.3-2.6c0.3-0.2,0.6-0.4,0.8-0.5l0,0v0c2.8-1.5,6.4-1.2,10.3,1.1c8.8,5.3,15.9,19.2,15.7,31.2
				c0,1-0.1,2-0.2,3c4.8,4.5,8.3,12.5,8.2,19.6c0,4.1-1.3,7.1-3.4,8.6l0,0l0,0c-0.3,0.2-0.6,0.4-0.9,0.5l-6.4,3.8l-5.9-6.5l0.4-1.1
				l-36.7-21.3c-6.4-3.8-11.5-14-11.4-22.6C293.8,133.7,297,129.9,301.5,130.3z"/>
			<linearGradient id="SVGID_1_" gradientUnits="userSpaceOnUse" x1="293.3889" y1="156.8694" x2="358.3625" y2="156.8694">
				<stop  offset="6.149733e-02" style="stop-color:#00E5ED"/>
				<stop  offset="0.1899" style="stop-color:#04E5ED;stop-opacity:0.9316"/>
				<stop  offset="0.3091" style="stop-color:#0FE7EE;stop-opacity:0.8681"/>
				<stop  offset="0.4248" style="stop-color:#22E8EF;stop-opacity:0.8064"/>
				<stop  offset="0.5383" style="stop-color:#3CEBF1;stop-opacity:0.746"/>
				<stop  offset="0.6502" style="stop-color:#5EEFF4;stop-opacity:0.6863"/>
				<stop  offset="0.761" style="stop-color:#88F3F7;stop-opacity:0.6273"/>
				<stop  offset="0.8707" style="stop-color:#BAF8FA;stop-opacity:0.5689"/>
				<stop  offset="0.9772" style="stop-color:#F2FEFE;stop-opacity:0.5122"/>
				<stop  offset="1" style="stop-color:#FFFFFF;stop-opacity:0.5"/>
			</linearGradient>
			<path class="st2" d="M347.3,192.4l-6.2-6.8l0.3-1L305,163.4c-6.5-3.9-11.7-14.2-11.6-22.9c0-4,1.2-7.1,3.2-8.9
				c1.2-1.1,2.7-1.6,4.3-1.6l-2.4-3.4l6.8-4c0.3-0.2,0.6-0.4,0.9-0.5l0.3-0.2l0,0c2.3-1,5-0.6,7.8,1.1c1.6,0.9,3.1,2.3,4.6,4
				l4.1-2.5c0.3-0.2,0.6-0.4,0.9-0.5c3-1.6,6.7-1.2,10.6,1.1c8.9,5.3,16,19.4,15.9,31.4c0,1-0.1,1.9-0.2,2.9
				c4.9,4.7,8.3,12.7,8.2,19.7c0,4.1-1.3,7.2-3.4,8.8l0,0c-0.3,0.2-0.6,0.4-1,0.6L347.3,192.4z M341.8,185.4l5.7,6.2l6.2-3.7
				c0.4-0.2,0.6-0.3,0.9-0.5c2-1.5,3.2-4.5,3.2-8.4c0.1-6.8-3.3-14.8-8.2-19.4l-0.1-0.1l0-0.1c0.1-1,0.2-2,0.2-2.9
				c0.1-11.8-6.8-25.7-15.6-30.9c-3.6-2.2-7.2-2.6-10-1.1c-0.3,0.1-0.6,0.3-0.8,0.5l-4.5,2.7l-0.2-0.2c-1.5-1.7-3-3.1-4.6-4
				c-2.7-1.6-5.3-2-7.5-1l-0.1,0.1c-0.3,0.1-0.6,0.3-0.8,0.5l-6.2,3.7l2.7,3.9l-0.6-0.1c-1.7-0.2-3.3,0.3-4.5,1.4
				c-1.9,1.7-3,4.7-3,8.5c-0.1,8.6,5,18.6,11.3,22.4l36.9,21.4L341.8,185.4z"/>
		</g>
		<g>
			<linearGradient id="XMLID_21_" gradientUnits="userSpaceOnUse" x1="293.3987" y1="156.8678" x2="358.3535" y2="156.8678">
				<stop  offset="6.149733e-02" style="stop-color:#00E5ED"/>
				<stop  offset="0.1899" style="stop-color:#04E5ED;stop-opacity:0.9316"/>
				<stop  offset="0.3091" style="stop-color:#0FE7EE;stop-opacity:0.8681"/>
				<stop  offset="0.4248" style="stop-color:#22E8EF;stop-opacity:0.8064"/>
				<stop  offset="0.5383" style="stop-color:#3CEBF1;stop-opacity:0.746"/>
				<stop  offset="0.6502" style="stop-color:#5EEFF4;stop-opacity:0.6863"/>
				<stop  offset="0.761" style="stop-color:#88F3F7;stop-opacity:0.6273"/>
				<stop  offset="0.8707" style="stop-color:#BAF8FA;stop-opacity:0.5689"/>
				<stop  offset="0.9772" style="stop-color:#F2FEFE;stop-opacity:0.5122"/>
				<stop  offset="1" style="stop-color:#FFFFFF;stop-opacity:0.5"/>
			</linearGradient>
			<path id="XMLID_14_" class="st3" d="M347.3,192.4l-6.2-6.8l0.3-1L305,163.4c-6.5-3.9-11.7-14.1-11.6-22.9c0-4,1.2-7.1,3.2-8.9
				c1.2-1.1,2.7-1.6,4.4-1.6l-2.4-3.4l6.7-4c0.3-0.2,0.6-0.4,0.9-0.5l0.3-0.2l0,0c2.3-1,5-0.6,7.8,1.1c1.6,0.9,3.1,2.3,4.6,4
				l4.1-2.5c0.3-0.2,0.6-0.4,0.9-0.5c3-1.6,6.7-1.2,10.5,1.1c8.9,5.3,16,19.4,15.9,31.4c0,1-0.1,1.9-0.2,2.9
				c4.9,4.7,8.3,12.7,8.2,19.7c0,4.1-1.3,7.2-3.5,8.9c-0.3,0.2-0.6,0.4-1,0.6L347.3,192.4z M341.8,185.4l5.7,6.2l6.2-3.7
				c0.3-0.2,0.6-0.3,0.9-0.5c2-1.5,3.2-4.5,3.2-8.4c0.1-6.8-3.3-14.8-8.2-19.4l-0.1-0.1l0-0.1c0.1-1,0.2-1.9,0.2-2.9
				c0.1-11.8-6.8-25.7-15.6-30.9c-3.6-2.2-7.2-2.6-10-1.1c-0.3,0.1-0.6,0.3-0.8,0.5l-4.5,2.7l-0.2-0.2c-1.5-1.7-3-3.1-4.6-4
				c-2.7-1.6-5.3-2-7.5-1l-0.1,0.1c-0.3,0.1-0.6,0.3-0.8,0.5l-6.2,3.7l2.7,3.9l-0.6-0.1c-1.7-0.2-3.3,0.3-4.5,1.4
				c-1.9,1.7-3,4.7-3,8.5c-0.1,8.6,5,18.6,11.3,22.4l36.9,21.4L341.8,185.4z"/>
			<linearGradient id="SVGID_2_" gradientUnits="userSpaceOnUse" x1="293.1047" y1="156.9084" x2="358.6473" y2="156.9084">
				<stop  offset="6.149733e-02" style="stop-color:#00E5ED"/>
				<stop  offset="0.1899" style="stop-color:#04E5ED;stop-opacity:0.9316"/>
				<stop  offset="0.3091" style="stop-color:#0FE7EE;stop-opacity:0.8681"/>
				<stop  offset="0.4248" style="stop-color:#22E8EF;stop-opacity:0.8064"/>
				<stop  offset="0.5383" style="stop-color:#3CEBF1;stop-opacity:0.746"/>
				<stop  offset="0.6502" style="stop-color:#5EEFF4;stop-opacity:0.6863"/>
				<stop  offset="0.761" style="stop-color:#88F3F7;stop-opacity:0.6273"/>
				<stop  offset="0.8707" style="stop-color:#BAF8FA;stop-opacity:0.5689"/>
				<stop  offset="0.9772" style="stop-color:#F2FEFE;stop-opacity:0.5122"/>
				<stop  offset="1" style="stop-color:#FFFFFF;stop-opacity:0.5"/>
			</linearGradient>
			<path class="st4" d="M347.3,192.8l-6.5-7.1l0.3-0.9l-36.3-21c-6.6-3.9-11.8-14.3-11.7-23.2c0-4,1.2-7.3,3.3-9.1
				c1.1-1,2.5-1.6,4-1.6l-2.2-3.2l7-4.2c0.3-0.2,0.6-0.4,0.9-0.5l0.5-0.3l0.1,0.1c2.3-0.9,5.1-0.5,7.9,1.2c1.5,0.9,3.1,2.2,4.5,3.8
				l3.9-2.3c0.3-0.2,0.6-0.4,0.9-0.5c3.1-1.6,6.9-1.2,10.8,1.1c9,5.4,16.1,19.6,16,31.7c0,0.9-0.1,1.8-0.2,2.7
				c4.9,4.7,8.3,12.9,8.2,19.8c-0.1,4.2-1.3,7.4-3.6,9.1c-0.3,0.2-0.6,0.4-1,0.6L347.3,192.8z M342.1,185.4l5.4,5.9l6-3.6
				c0.4-0.2,0.6-0.3,0.9-0.5c2-1.5,3.1-4.4,3.1-8.2c0.1-6.8-3.2-14.6-8.1-19.1l-0.2-0.2l0-0.3c0.1-0.9,0.2-1.9,0.2-2.9
				c0.1-11.7-6.8-25.5-15.4-30.7c-3.5-2.1-7-2.5-9.7-1.1c-0.3,0.1-0.5,0.3-0.8,0.5l-4.7,2.9l-0.3-0.4c-1.5-1.7-3-3-4.6-4
				c-2.6-1.6-5.1-1.9-7.2-0.9l-0.1,0.1c-0.3,0.1-0.5,0.3-0.8,0.5l-6,3.6l2.9,4.2l-1.3-0.1c-1.6-0.2-3.1,0.3-4.3,1.3
				c-1.8,1.6-2.9,4.6-2.9,8.3c-0.1,8.5,4.9,18.4,11.1,22.1l37.1,21.5L342.1,185.4z M301.5,130.3
				C301.5,130.3,301.5,130.3,301.5,130.3L301.5,130.3z"/>
		</g>
	</g>
	<g id="XMLID_12_">
		<g>
			<linearGradient id="XMLID_25_" gradientUnits="userSpaceOnUse" x1="298.98" y1="127.3236" x2="318.8877" y2="127.3236">
				<stop  offset="6.149733e-02" style="stop-color:#00E5ED"/>
				<stop  offset="0.1899" style="stop-color:#04E5ED;stop-opacity:0.9316"/>
				<stop  offset="0.3091" style="stop-color:#0FE7EE;stop-opacity:0.8681"/>
				<stop  offset="0.4248" style="stop-color:#22E8EF;stop-opacity:0.8064"/>
				<stop  offset="0.5383" style="stop-color:#3CEBF1;stop-opacity:0.746"/>
				<stop  offset="0.6502" style="stop-color:#5EEFF4;stop-opacity:0.6863"/>
				<stop  offset="0.761" style="stop-color:#88F3F7;stop-opacity:0.6273"/>
				<stop  offset="0.8707" style="stop-color:#BAF8FA;stop-opacity:0.5689"/>
				<stop  offset="0.9772" style="stop-color:#F2FEFE;stop-opacity:0.5122"/>
				<stop  offset="1" style="stop-color:#FFFFFF;stop-opacity:0.5"/>
			</linearGradient>
			<path id="XMLID_13_" class="st5" d="M318.9,127.3c-1.4-1.7-3-3.1-4.7-4.1c-2.9-1.7-5.6-2-7.7-1l0,0l-0.1,0.1
				c-0.3,0.1-0.6,0.3-0.8,0.5l-6.5,3.9l2,2.9l11.5,3.4L318.9,127.3z"/>
			<linearGradient id="SVGID_3_" gradientUnits="userSpaceOnUse" x1="298.5585" y1="127.3381" x2="319.298" y2="127.3381">
				<stop  offset="6.149733e-02" style="stop-color:#00E5ED"/>
				<stop  offset="0.1899" style="stop-color:#04E5ED;stop-opacity:0.9316"/>
				<stop  offset="0.3091" style="stop-color:#0FE7EE;stop-opacity:0.8681"/>
				<stop  offset="0.4248" style="stop-color:#22E8EF;stop-opacity:0.8064"/>
				<stop  offset="0.5383" style="stop-color:#3CEBF1;stop-opacity:0.746"/>
				<stop  offset="0.6502" style="stop-color:#5EEFF4;stop-opacity:0.6863"/>
				<stop  offset="0.761" style="stop-color:#88F3F7;stop-opacity:0.6273"/>
				<stop  offset="0.8707" style="stop-color:#BAF8FA;stop-opacity:0.5689"/>
				<stop  offset="0.9772" style="stop-color:#F2FEFE;stop-opacity:0.5122"/>
				<stop  offset="1" style="stop-color:#FFFFFF;stop-opacity:0.5"/>
			</linearGradient>
			<path class="st6" d="M312.6,133.3l-11.8-3.5l-2.3-3.3l6.8-4c0.3-0.2,0.6-0.4,0.9-0.5l0.3-0.2l0,0c2.3-1,5-0.6,7.8,1.1
				c1.6,1,3.2,2.4,4.8,4.2l0.2,0.2L312.6,133.3z M301.2,129.4l11.2,3.3l6-5.4c-1.4-1.6-2.9-2.9-4.4-3.8c-2.7-1.6-5.3-2-7.5-1
				l-0.1,0.1c-0.3,0.1-0.6,0.3-0.8,0.5l-6.2,3.7L301.2,129.4z"/>
		</g>
		<g>
			<linearGradient id="XMLID_26_" gradientUnits="userSpaceOnUse" x1="298.5733" y1="127.337" x2="319.2844" y2="127.337">
				<stop  offset="6.149733e-02" style="stop-color:#00E5ED"/>
				<stop  offset="0.1899" style="stop-color:#04E5ED;stop-opacity:0.9316"/>
				<stop  offset="0.3091" style="stop-color:#0FE7EE;stop-opacity:0.8681"/>
				<stop  offset="0.4248" style="stop-color:#22E8EF;stop-opacity:0.8064"/>
				<stop  offset="0.5383" style="stop-color:#3CEBF1;stop-opacity:0.746"/>
				<stop  offset="0.6502" style="stop-color:#5EEFF4;stop-opacity:0.6863"/>
				<stop  offset="0.761" style="stop-color:#88F3F7;stop-opacity:0.6273"/>
				<stop  offset="0.8707" style="stop-color:#BAF8FA;stop-opacity:0.5689"/>
				<stop  offset="0.9772" style="stop-color:#F2FEFE;stop-opacity:0.5122"/>
				<stop  offset="1" style="stop-color:#FFFFFF;stop-opacity:0.5"/>
			</linearGradient>
			<path id="XMLID_9_" class="st7" d="M312.6,133.3l-11.7-3.5l-2.3-3.3l6.7-4c0.3-0.2,0.6-0.4,0.9-0.5l0.3-0.2l0,0
				c2.3-1,5-0.6,7.8,1.1c1.6,1,3.2,2.4,4.8,4.2l0.2,0.2L312.6,133.3z M301.2,129.4l11.3,3.3l6-5.4c-1.4-1.6-2.9-2.9-4.4-3.8
				c-2.7-1.6-5.3-2-7.5-1l-0.1,0.1c-0.3,0.1-0.6,0.3-0.8,0.5l-6.2,3.7L301.2,129.4z"/>
			<linearGradient id="SVGID_4_" gradientUnits="userSpaceOnUse" x1="298.1526" y1="127.3541" x2="319.6946" y2="127.3541">
				<stop  offset="6.149733e-02" style="stop-color:#00E5ED"/>
				<stop  offset="0.1899" style="stop-color:#04E5ED;stop-opacity:0.9316"/>
				<stop  offset="0.3091" style="stop-color:#0FE7EE;stop-opacity:0.8681"/>
				<stop  offset="0.4248" style="stop-color:#22E8EF;stop-opacity:0.8064"/>
				<stop  offset="0.5383" style="stop-color:#3CEBF1;stop-opacity:0.746"/>
				<stop  offset="0.6502" style="stop-color:#5EEFF4;stop-opacity:0.6863"/>
				<stop  offset="0.761" style="stop-color:#88F3F7;stop-opacity:0.6273"/>
				<stop  offset="0.8707" style="stop-color:#BAF8FA;stop-opacity:0.5689"/>
				<stop  offset="0.9772" style="stop-color:#F2FEFE;stop-opacity:0.5122"/>
				<stop  offset="1" style="stop-color:#FFFFFF;stop-opacity:0.5"/>
			</linearGradient>
			<path class="st8" d="M312.7,133.7l-12-3.5l-2.5-3.6l7-4.2c0.3-0.2,0.6-0.4,0.9-0.5l0.5-0.3l0.1,0.1c2.3-0.9,5.1-0.5,7.9,1.2
				c1.7,1,3.3,2.4,4.8,4.2l0.4,0.4L312.7,133.7z M301.4,129.1l11,3.2l5.7-5.1c-1.4-1.5-2.8-2.7-4.2-3.5c-2.6-1.6-5.1-1.9-7.2-0.9
				l-0.1,0.1c-0.3,0.1-0.5,0.3-0.8,0.5l-6,3.6L301.4,129.1z"/>
		</g>
	</g>
	<g id="XMLID_7_">
		<g>
			<linearGradient id="XMLID_27_" gradientUnits="userSpaceOnUse" x1="342.4108" y1="175.731" x2="358.069" y2="175.731">
				<stop  offset="6.149733e-02" style="stop-color:#00E5ED"/>
				<stop  offset="0.1899" style="stop-color:#04E5ED;stop-opacity:0.9316"/>
				<stop  offset="0.3091" style="stop-color:#0FE7EE;stop-opacity:0.8681"/>
				<stop  offset="0.4248" style="stop-color:#22E8EF;stop-opacity:0.8064"/>
				<stop  offset="0.5383" style="stop-color:#3CEBF1;stop-opacity:0.746"/>
				<stop  offset="0.6502" style="stop-color:#5EEFF4;stop-opacity:0.6863"/>
				<stop  offset="0.761" style="stop-color:#88F3F7;stop-opacity:0.6273"/>
				<stop  offset="0.8707" style="stop-color:#BAF8FA;stop-opacity:0.5689"/>
				<stop  offset="0.9772" style="stop-color:#F2FEFE;stop-opacity:0.5122"/>
				<stop  offset="1" style="stop-color:#FFFFFF;stop-opacity:0.5"/>
			</linearGradient>
			<path id="XMLID_8_" class="st9" d="M353.8,188.2c0.3-0.2,0.6-0.3,0.9-0.5l0,0l0,0c2-1.5,3.3-4.5,3.4-8.6c0.1-7-3.4-15.1-8.2-19.6
				l-7.4,4.4l1,23.8l4,4.4L353.8,188.2z"/>
			<linearGradient id="SVGID_5_" gradientUnits="userSpaceOnUse" x1="342.1103" y1="175.7357" x2="358.3625" y2="175.7357">
				<stop  offset="6.149733e-02" style="stop-color:#00E5ED"/>
				<stop  offset="0.1899" style="stop-color:#04E5ED;stop-opacity:0.9316"/>
				<stop  offset="0.3091" style="stop-color:#0FE7EE;stop-opacity:0.8681"/>
				<stop  offset="0.4248" style="stop-color:#22E8EF;stop-opacity:0.8064"/>
				<stop  offset="0.5383" style="stop-color:#3CEBF1;stop-opacity:0.746"/>
				<stop  offset="0.6502" style="stop-color:#5EEFF4;stop-opacity:0.6863"/>
				<stop  offset="0.761" style="stop-color:#88F3F7;stop-opacity:0.6273"/>
				<stop  offset="0.8707" style="stop-color:#BAF8FA;stop-opacity:0.5689"/>
				<stop  offset="0.9772" style="stop-color:#F2FEFE;stop-opacity:0.5122"/>
				<stop  offset="1" style="stop-color:#FFFFFF;stop-opacity:0.5"/>
			</linearGradient>
			<path class="st10" d="M347.3,192.4l-4.2-4.6l-1-24.1l7.7-4.6l0.2,0.2c5,4.7,8.4,12.8,8.3,19.8c0,4.1-1.3,7.2-3.4,8.8l0,0
				c-0.3,0.2-0.6,0.4-0.9,0.6L347.3,192.4z M343.7,187.6l3.7,4.1l6.2-3.7c0.3-0.2,0.6-0.3,0.9-0.5c2-1.5,3.2-4.5,3.2-8.4
				c0.1-6.8-3.2-14.6-8-19.2l-7.1,4.2L343.7,187.6z"/>
		</g>
		<g>
			<linearGradient id="XMLID_28_" gradientUnits="userSpaceOnUse" x1="342.12" y1="175.7356" x2="358.3535" y2="175.7356">
				<stop  offset="6.149733e-02" style="stop-color:#00E5ED"/>
				<stop  offset="0.1899" style="stop-color:#04E5ED;stop-opacity:0.9316"/>
				<stop  offset="0.3091" style="stop-color:#0FE7EE;stop-opacity:0.8681"/>
				<stop  offset="0.4248" style="stop-color:#22E8EF;stop-opacity:0.8064"/>
				<stop  offset="0.5383" style="stop-color:#3CEBF1;stop-opacity:0.746"/>
				<stop  offset="0.6502" style="stop-color:#5EEFF4;stop-opacity:0.6863"/>
				<stop  offset="0.761" style="stop-color:#88F3F7;stop-opacity:0.6273"/>
				<stop  offset="0.8707" style="stop-color:#BAF8FA;stop-opacity:0.5689"/>
				<stop  offset="0.9772" style="stop-color:#F2FEFE;stop-opacity:0.5122"/>
				<stop  offset="1" style="stop-color:#FFFFFF;stop-opacity:0.5"/>
			</linearGradient>
			<path id="XMLID_4_" class="st11" d="M347.3,192.4l-4.2-4.6l0-0.1l-1-24l7.7-4.6l0.2,0.1c5,4.7,8.4,12.8,8.3,19.8
				c0,4.1-1.3,7.2-3.5,8.9c-0.3,0.2-0.6,0.4-0.9,0.6L347.3,192.4z M343.7,187.6l3.7,4.1l6.2-3.7c0.3-0.2,0.6-0.3,0.9-0.5
				c2-1.5,3.2-4.5,3.2-8.4c0.1-6.8-3.2-14.6-8-19.2l-7.1,4.2L343.7,187.6z"/>
			<linearGradient id="SVGID_6_" gradientUnits="userSpaceOnUse" x1="341.8187" y1="175.7403" x2="358.6473" y2="175.7403">
				<stop  offset="6.149733e-02" style="stop-color:#00E5ED"/>
				<stop  offset="0.1899" style="stop-color:#04E5ED;stop-opacity:0.9316"/>
				<stop  offset="0.3091" style="stop-color:#0FE7EE;stop-opacity:0.8681"/>
				<stop  offset="0.4248" style="stop-color:#22E8EF;stop-opacity:0.8064"/>
				<stop  offset="0.5383" style="stop-color:#3CEBF1;stop-opacity:0.746"/>
				<stop  offset="0.6502" style="stop-color:#5EEFF4;stop-opacity:0.6863"/>
				<stop  offset="0.761" style="stop-color:#88F3F7;stop-opacity:0.6273"/>
				<stop  offset="0.8707" style="stop-color:#BAF8FA;stop-opacity:0.5689"/>
				<stop  offset="0.9772" style="stop-color:#F2FEFE;stop-opacity:0.5122"/>
				<stop  offset="1" style="stop-color:#FFFFFF;stop-opacity:0.5"/>
			</linearGradient>
			<path class="st12" d="M347.3,192.8l-4.4-4.9l0-0.2l-1-24.1l8.1-4.8l0.3,0.3c5.1,4.7,8.5,12.9,8.4,20c-0.1,4.2-1.3,7.4-3.6,9.1
				c-0.3,0.2-0.6,0.4-1,0.6L347.3,192.8z M344,187.4l3.5,3.9l6-3.6c0.3-0.2,0.6-0.3,0.8-0.5c2-1.5,3.1-4.4,3.1-8.2
				c0.1-6.6-3.1-14.3-7.8-18.8l-6.7,4L344,187.4z"/>
		</g>
	</g>
	<g id="XMLID_2_">
		<g>
			<path id="XMLID_3_" class="st13" d="M294.3,134.8c0.9-7.7,6.2-10.9,12.5-7.1c2.1,1.2,4,3.1,5.7,5.4c2.7-5.4,8.2-7,14.4-3.3
				c8.8,5.3,15.9,19.2,15.7,31.2c0,1-0.1,2-0.2,3c4.8,4.5,8.3,12.5,8.2,19.6c-0.1,8.3-5.1,12-11.2,8.3l-41.7-24.2
				c-6.4-3.8-11.5-14-11.4-22.6C286.4,138.1,289.7,134.2,294.3,134.8z"/>
			<path class="st13" d="M343.9,193.5c-1.5,0-3-0.5-4.6-1.4l-41.7-24.2c-6.5-3.9-11.7-14.2-11.6-22.9c0-4,1.2-7.2,3.3-9
				c1.3-1.2,3-1.7,4.8-1.5c0.5-3.9,2.2-6.8,4.8-8c2.3-1.1,5.2-0.8,8.1,0.9c2,1.2,3.8,2.9,5.5,5.1c1.3-2.4,3.2-4,5.5-4.7
				c2.7-0.8,5.8-0.2,9,1.7c8.9,5.3,16,19.4,15.9,31.4c0,1-0.1,1.9-0.2,2.9c4.9,4.7,8.3,12.7,8.2,19.7c-0.1,4.5-1.6,7.9-4.1,9.3
				C345.9,193.2,344.9,193.5,343.9,193.5z M293.4,135c-1.4,0-2.7,0.5-3.7,1.4c-1.9,1.7-3,4.7-3.1,8.5c-0.1,8.6,5,18.6,11.3,22.4
				l41.7,24.2c2.6,1.5,5,1.8,7,0.7c2.4-1.3,3.8-4.5,3.8-8.8c0.1-6.8-3.3-14.8-8.2-19.4l-0.1-0.1l0-0.1c0.1-1,0.2-1.9,0.2-2.9
				c0.1-11.8-6.8-25.7-15.6-30.9c-3.1-1.8-6-2.4-8.6-1.7c-2.3,0.7-4.1,2.3-5.4,4.8l-0.2,0.4l-0.3-0.4c-1.7-2.3-3.7-4.1-5.7-5.3
				c-2.8-1.7-5.4-2-7.6-0.9c-2.4,1.2-4,4-4.5,7.8l0,0.3l-0.3,0C294,135,293.7,135,293.4,135z"/>
		</g>
		<g>
			<path id="XMLID_22_" class="st13" d="M343.9,193.5c-1.5,0-3-0.5-4.6-1.4l-41.7-24.2c-6.5-3.9-11.7-14.1-11.6-22.9
				c0-4,1.2-7.2,3.3-9c1.3-1.2,3-1.7,4.8-1.5c0.5-3.9,2.2-6.8,4.8-8c2.3-1.1,5.2-0.8,8.1,0.9c1.9,1.2,3.8,2.9,5.6,5.1
				c1.3-2.4,3.2-4,5.5-4.7c2.7-0.8,5.8-0.2,9,1.7c8.9,5.3,16,19.4,15.9,31.4c0,1-0.1,1.9-0.2,2.9c4.9,4.7,8.3,12.7,8.2,19.7
				c-0.1,4.5-1.6,7.8-4.1,9.3C345.9,193.2,344.9,193.5,343.9,193.5z M293.4,135c-1.4,0-2.7,0.5-3.8,1.4c-1.9,1.7-3,4.7-3.1,8.6
				c-0.1,8.6,5,18.6,11.3,22.4l41.7,24.2c2.6,1.5,5,1.8,7,0.7c2.4-1.3,3.8-4.5,3.8-8.8c0.1-6.8-3.3-14.8-8.2-19.4l-0.1-0.1l0-0.1
				c0.1-1,0.2-1.9,0.2-2.9c0.1-11.8-6.8-25.7-15.6-30.9c-3.1-1.8-6-2.4-8.6-1.7c-2.3,0.7-4.1,2.3-5.4,4.8l-0.2,0.4l-0.3-0.4
				c-1.7-2.3-3.7-4.1-5.7-5.3c-2.8-1.7-5.4-2-7.6-0.9c-2.4,1.2-4,4-4.5,7.9l0,0.3l-0.3,0C294,135,293.7,135,293.4,135z"/>
			<path class="st13" d="M343.9,193.8c-1.5,0-3.1-0.5-4.8-1.5l-41.7-24.2c-6.6-3.9-11.8-14.3-11.7-23.2c0.1-4.1,1.2-7.4,3.4-9.2
				c1.3-1.1,2.9-1.7,4.7-1.6c0.6-3.9,2.3-6.7,4.9-8c2.4-1.2,5.4-0.8,8.4,1c1.9,1.1,3.7,2.8,5.4,4.8c1.4-2.3,3.2-3.8,5.5-4.5
				c2.8-0.8,6-0.2,9.3,1.8c9,5.4,16.1,19.6,16,31.7c0,0.9-0.1,1.8-0.2,2.7c4.9,4.7,8.3,12.9,8.2,19.8c-0.1,4.6-1.6,8-4.3,9.5
				C346,193.5,345,193.8,343.9,193.8z M293.4,135.3c-1.3,0-2.6,0.5-3.6,1.3c-1.9,1.6-2.9,4.6-3,8.3c-0.1,8.5,4.9,18.4,11.1,22.1
				l41.7,24.2c2.5,1.5,4.8,1.7,6.7,0.7c2.3-1.3,3.6-4.4,3.7-8.5c0.1-6.8-3.2-14.6-8.1-19.1l-0.2-0.2l0-0.3c0.1-1,0.2-1.9,0.2-2.9
				c0.1-11.7-6.8-25.5-15.4-30.7c-3-1.8-5.9-2.4-8.4-1.6c-2.2,0.6-4,2.2-5.2,4.7l-0.4,0.8l-0.6-0.7c-1.7-2.3-3.6-4.1-5.6-5.2
				c-2.7-1.6-5.2-1.9-7.3-0.9c-2.3,1.1-3.9,3.8-4.3,7.6l-0.1,0.6l-0.6-0.1C293.9,135.3,293.7,135.3,293.4,135.3z"/>
		</g>
	</g>
</g>
<circle class="st14" cx="280.6" cy="182.5" r="6.4"/>
<circle class="st15" cx="128.3" cy="153.7" r="67.8"/>
<g>
	<g>
		<path class="st16" d="M306.1,161.4c-6.2,5.5-13,11.6-19.3,17.1c0,0,0,0,0,0c0.1,0.1,0.1,0.2,0.2,0.3c0.1,0.1,0.1,0.2,0.1,0.3
			c0.5,1,0.7,2.1,0.8,3.2c6.8-6,14.1-12.5,20.8-18.5C307.8,163.2,306.8,162.4,306.1,161.4z"/>
		<path class="st17" d="M287.4,183.9l-0.1-1.5c-0.1-1-0.3-2-0.7-3c0-0.1-0.1-0.2-0.1-0.2c-0.1-0.1-0.1-0.2-0.1-0.2l-0.1-0.1
			l-0.3-0.5l0.5-0.4c3.2-2.8,6.4-5.7,9.7-8.6c3.2-2.9,6.4-5.7,9.5-8.4l0.6-0.6l0.5,0.7c0.7,0.9,1.5,1.7,2.5,2.3l0.9,0.5l-0.8,0.7
			c-3.4,3-6.9,6.1-10.4,9.2c-3.5,3.1-7,6.3-10.4,9.2L287.4,183.9z"/>
	</g>
	<g>
		<path class="st16" d="M255.2,161.4c-0.1,1.4-0.5,2.7-1.2,3.8c5.7,5,11.9,10.6,17.6,15.6c0.3-1.2,0.8-2.4,1.6-3.4
			C267.4,172.3,261,166.6,255.2,161.4z"/>
		<path class="st17" d="M272,182.3l-1-0.8c-2.8-2.5-5.8-5.1-8.7-7.7c-3-2.7-6-5.3-8.8-7.8l-0.5-0.4l0.3-0.5c0.6-1.1,1-2.3,1.1-3.5
			l0.1-1.5l1.2,1c2.9,2.6,5.9,5.3,9,8c3.1,2.7,6.1,5.4,9,8l0.5,0.5l-0.5,0.6c-0.7,0.9-1.2,2-1.5,3.1L272,182.3z M255,165.1
			c2.7,2.4,5.5,4.9,8.4,7.4c2.6,2.4,5.3,4.7,7.8,7c0.3-0.7,0.6-1.3,1-1.9c-2.8-2.4-5.6-5-8.5-7.6c-2.7-2.4-5.3-4.8-7.9-7
			C255.6,163.7,255.3,164.4,255,165.1z"/>
	</g>
	<g>
		<path class="st16" d="M207.3,188c-0.4-6.6,9.8-6.5,10.1,0C217,194.6,207.6,194.6,207.3,188z M217.6,181.1
			c-1.4-1.1-3.2-1.7-5.2-1.9c-4.9-0.3-8.5,4.2-8.7,8.7c-0.3,4.9,4.2,8.5,8.7,8.7c4.7,0.3,8.2-3.9,8.7-8.2c0-0.2,0.1-0.3,0.1-0.5
			c0-0.2,0-0.4-0.1-0.5c-0.1-1.3-0.5-2.5-1.1-3.6c6.6-5.9,13.5-12,20.2-17.9c-0.8-1-1.3-2.2-1.6-3.5
			C231.6,168.7,224.4,175,217.6,181.1z"/>
		<path class="st17" d="M212.8,197.5c-0.2,0-0.3,0-0.5,0c-4.8-0.3-9.7-4-9.4-9.5c0.1-2.5,1.2-4.9,2.8-6.7c1.8-1.9,4.2-3,6.7-2.8
			c1.9,0.1,3.7,0.7,5.1,1.6c3.3-2.9,6.7-5.9,10-8.9c3.5-3.1,7-6.2,10.5-9.3l1-0.9l0.2,1.3c0.2,1.1,0.7,2.2,1.4,3.2l0.4,0.6l-0.5,0.5
			c-3.3,2.9-6.6,5.9-10,8.8c-3.3,2.9-6.5,5.8-9.8,8.6c0.5,1,0.8,2.1,0.9,3.3c0.1,0.2,0.1,0.5,0.1,0.7c0,0.2,0,0.4-0.1,0.6
			C221.2,193.1,217.8,197.5,212.8,197.5z M211.9,180c-1.9,0-3.7,0.8-5.2,2.3c-1.4,1.5-2.3,3.6-2.4,5.7c-0.2,4.6,4,7.7,8,7.9
			c4.4,0.2,7.4-3.6,7.9-7.5l0-0.1c0-0.1,0-0.2,0-0.3c0-0.2,0-0.3,0-0.4l0-0.1c-0.1-1.2-0.5-2.3-1-3.3l-0.3-0.5l0.5-0.4
			c3.3-3,6.8-6,10.2-9c3.2-2.8,6.3-5.6,9.5-8.4c-0.4-0.6-0.7-1.3-1-2c-3.1,2.8-6.4,5.6-9.6,8.5c-3.5,3.1-7,6.2-10.5,9.3l-0.5,0.4
			l-0.5-0.4c-1.3-1-3-1.6-4.8-1.7C212.2,180,212,180,211.9,180z M212.3,193.7c-2.7,0-5.6-1.8-5.8-5.6l0,0c-0.2-3.7,2.6-5.6,5.2-5.7
			c3-0.2,6.3,1.8,6.5,5.6C218,191.9,215,193.7,212.3,193.7z M208,188c0.2,2.9,2.3,4.2,4.3,4.2c2,0,4.2-1.3,4.3-4.2
			c-0.2-2.8-2.6-4.2-4.9-4.1C209.9,184,207.9,185.1,208,188L208,188z"/>
	</g>
	<g>
		<path class="st16" d="M247.2,166.2c-3,0.3-5.3-2.2-5.5-5.1c-0.1-2.6,2-4.6,4.4-5.1c2.8-0.6,5.1,1.7,5.7,4.3
			C252.1,163.3,250.3,166,247.2,166.2z M255.5,160.1c0-0.1,0-0.1,0-0.2c0-0.1,0-0.2,0-0.3c-0.8-4.4-4.9-7.5-9.3-7.1
			c-4.5,0.4-7.8,4.2-7.9,8.7c0,0.6,0,1.1,0.1,1.7c0.2,1.3,0.8,2.5,1.6,3.5c1.7,2.2,4.5,3.7,7.4,3.6c3-0.1,5.6-1.9,7.1-4.3
			c0.7-1.2,1.1-2.5,1.2-3.8C255.5,161.2,255.5,160.6,255.5,160.1z"/>
		<path class="st17" d="M247,170.7c-3,0-6-1.5-7.8-3.9c-0.9-1.1-1.5-2.4-1.7-3.8c-0.1-0.6-0.2-1.2-0.1-1.8c0.1-5,3.9-9,8.6-9.4
			c4.8-0.4,9.3,3,10.2,7.7c0,0.1,0,0.2,0,0.3c0,0.1,0,0.1,0,0.2c0.1,0.6,0.1,1.2,0,1.8c-0.1,1.4-0.5,2.9-1.3,4.2
			c-1.7,2.9-4.5,4.6-7.7,4.7C247.2,170.7,247.1,170.7,247,170.7z M246.8,153.2c-0.2,0-0.4,0-0.7,0c-4,0.3-7.1,3.8-7.2,8
			c0,0.5,0,1,0.1,1.5c0.2,1.1,0.7,2.2,1.4,3.2c1.6,2.1,4.2,3.3,6.8,3.3c2.6-0.1,5-1.6,6.4-4c0.6-1.1,1-2.3,1.1-3.5c0-0.5,0-1,0-1.5
			v0c0,0,0-0.1,0-0.1l0-0.1c0-0.1,0-0.1,0-0.2C253.9,156,250.5,153.2,246.8,153.2z M246.8,167c-1.4,0-2.6-0.5-3.7-1.4
			c-1.3-1.1-2-2.7-2.1-4.4c-0.2-3.2,2.4-5.3,5-5.8c3.3-0.7,5.9,1.9,6.6,4.8l0,0.1c0.3,3.5-2,6.4-5.3,6.7l0,0
			C247.1,167,247,167,246.8,167z M247,156.8c-0.2,0-0.4,0-0.7,0.1c-1.9,0.4-3.9,2-3.8,4.3c0.1,1.3,0.6,2.5,1.6,3.4
			c0.6,0.5,1.6,1.1,3.1,1l0,0c2.8-0.3,4.1-2.7,3.9-5C250.6,158.6,249,156.8,247,156.8z"/>
	</g>
	<g>
		<path class="st16" d="M282.1,187.2c-2.2,1.3-5.1,0.5-6.5-1.5c-1.7-2.3-1-5.6,1.3-7.2c2.5-1.8,5.9-0.7,7.3,1.8
			C285.4,182.9,284.5,185.8,282.1,187.2z M287.3,178.5c-0.1-0.1-0.1-0.2-0.2-0.3c0,0,0,0,0,0c-2.5-4-7.6-5.3-11.8-3.1
			c-1,0.5-1.8,1.2-2.4,2c-0.8,1-1.4,2.2-1.6,3.4c-0.5,2.2-0.2,4.7,0.9,6.7c2.3,4,7.4,5.1,11.4,3.3c3.4-1.5,4.9-5,4.7-8.5
			c-0.1-1.1-0.3-2.2-0.8-3.2C287.4,178.7,287.4,178.6,287.3,178.5z"/>
		<path class="st17" d="M279.6,192.2c-3.3,0-6.4-1.6-8.1-4.5c-1.2-2.1-1.6-4.8-1-7.2c0.3-1.4,0.9-2.7,1.8-3.7
			c0.7-0.9,1.6-1.7,2.7-2.2c4.6-2.4,10.1-1,12.8,3.3l0,0c0.1,0.1,0.1,0.2,0.2,0.3c0.1,0.1,0.1,0.3,0.2,0.4c0.5,1.1,0.8,2.2,0.9,3.5
			c0.3,4.1-1.7,7.7-5.1,9.2C282.5,191.9,281.1,192.2,279.6,192.2z M279.7,174.8c-1.3,0-2.7,0.3-3.9,1c-0.8,0.5-1.6,1.1-2.2,1.8
			c-0.7,0.9-1.2,2-1.5,3.1c-0.5,2.1-0.2,4.3,0.9,6.1c2,3.5,6.5,4.8,10.4,3c2.8-1.3,4.5-4.3,4.2-7.7c-0.1-1-0.3-2-0.7-3
			c0-0.1-0.1-0.2-0.1-0.2l0,0c0-0.1-0.1-0.1-0.1-0.2l-0.1-0.1C284.9,176.2,282.3,174.8,279.7,174.8z M279.8,188.6
			c-1.8,0-3.7-0.9-4.8-2.4c-0.9-1.3-1.3-2.8-1-4.4c0.3-1.6,1.2-3,2.5-3.9c1.3-0.9,2.9-1.2,4.4-0.9c1.7,0.4,3.1,1.4,4,3
			c1.4,2.9,0.4,6.2-2.3,7.9v0C281.7,188.3,280.7,188.6,279.8,188.6z M279.6,178.4c-0.8,0-1.6,0.3-2.3,0.7c-1,0.7-1.6,1.7-1.8,2.9
			c-0.2,1.1,0.1,2.3,0.7,3.2c1.3,1.7,3.8,2.3,5.5,1.3l0,0c2.1-1.2,2.8-3.7,1.8-5.8c-0.6-1.1-1.7-1.9-3-2.2
			C280.2,178.4,279.9,178.4,279.6,178.4z"/>
	</g>
	<g>
		<path class="st16" d="M313.6,161.7c-3.3,0.6-5.8-2.5-5.7-5.4c0.1-2.7,2.5-4.6,5.1-4.7c2.6,0.1,4.8,2,5.1,4.7
			C318.3,159.1,316.2,161.2,313.6,161.7z M321.7,156.3c-0.1-4.6-4-8.1-8.4-8.3c-0.1,0-0.2,0-0.3,0c-0.1,0-0.2,0-0.3,0
			c-4.6,0.3-8,3.7-8.4,8.3c-0.2,2,0.5,3.9,1.6,5.4c0.7,1,1.7,1.8,2.7,2.5c1.5,0.9,3.4,1.4,5.2,1.2
			C318.4,165,321.8,160.9,321.7,156.3z"/>
		<path class="st17" d="M313.1,166.2c-1.7,0-3.4-0.5-4.9-1.4c-1.2-0.7-2.2-1.6-3-2.7c-1.3-1.8-1.9-3.8-1.7-5.9c0.4-5,4.2-8.7,9.1-9
			c0.1,0,0.2,0,0.4,0c0.1,0,0.2,0,0.4,0c4.9,0.3,9,4.3,9.1,9.1l0,0c0.1,5.1-3.7,9.5-8.6,9.9C313.6,166.2,313.3,166.2,313.1,166.2z
			 M313,148.7c-0.1,0-0.1,0-0.2,0c-4.2,0.2-7.4,3.4-7.7,7.6c-0.1,1.7,0.3,3.4,1.4,4.9c0.7,0.9,1.5,1.7,2.5,2.3
			c1.5,0.9,3.1,1.3,4.7,1.1c4.2-0.4,7.4-4,7.2-8.3l0,0c-0.1-4-3.5-7.3-7.7-7.6C313.1,148.7,313.1,148.7,313,148.7
			C313,148.7,313,148.7,313,148.7z M312.8,162.6c-1.2,0-2.4-0.4-3.4-1.3c-1.4-1.2-2.3-3.2-2.3-5c0.1-3.3,3.1-5.4,5.8-5.4
			c3.1,0.1,5.6,2.4,5.8,5.4c0.3,3-1.9,5.6-5,6.3l0,0C313.5,162.6,313.1,162.6,312.8,162.6z M313,152.4c-2,0.1-4.2,1.6-4.3,4
			c0,1.4,0.6,2.9,1.7,3.8c0.6,0.5,1.7,1.1,3.1,0.8l0,0c2-0.4,4-2.1,3.8-4.6C317.1,154.1,315.3,152.4,313,152.4z"/>
	</g>
</g>
<g>
	<defs>
		<circle id="SVGID_7_" cx="128.3" cy="153.7" r="67.8"/>
	</defs>
	<clipPath id="SVGID_8_">
		<use xlink:href="#SVGID_7_"  style="overflow:visible;"/>
	</clipPath>
	<g class="st18">
		<path class="st19" d="M75.6,121.9c-1.9,0-3.4-0.7-4.4-2c-1-1.3-1.4-3.1-1.4-5.3c0-2.2,0.5-4,1.4-5.3c1-1.3,2.4-2,4.4-2
			c1.9,0,3.4,0.7,4.4,2c1,1.3,1.4,3.1,1.4,5.3c0,2.2-0.5,4-1.4,5.3C79,121.2,77.5,121.9,75.6,121.9z M73.5,111.2
			c-0.4,0.9-0.7,2-0.7,3.4c0,1.4,0.2,2.5,0.7,3.4c0.4,0.9,1.1,1.3,2.1,1.3c0.9,0,1.6-0.4,2.1-1.3c0.4-0.9,0.7-2,0.7-3.4
			c0-1.4-0.2-2.5-0.7-3.4c-0.4-0.9-1.1-1.3-2.1-1.3C74.6,110,73.9,110.4,73.5,111.2z"/>
		<path class="st19" d="M85.5,107.7h5.7v14h-3v-11.4h-2.7V107.7z"/>
		<path class="st20" d="M102.3,121.9c-1.9,0-3.4-0.7-4.4-2c-1-1.3-1.4-3.1-1.4-5.3c0-2.2,0.5-4,1.4-5.3c1-1.3,2.4-2,4.4-2
			c1.9,0,3.4,0.7,4.4,2c1,1.3,1.4,3.1,1.4,5.3c0,2.2-0.5,4-1.4,5.3C105.7,121.2,104.2,121.9,102.3,121.9z M100.2,111.2
			c-0.4,0.9-0.7,2-0.7,3.4c0,1.4,0.2,2.5,0.7,3.4c0.4,0.9,1.1,1.3,2.1,1.3c0.9,0,1.6-0.4,2.1-1.3c0.4-0.9,0.7-2,0.7-3.4
			c0-1.4-0.2-2.5-0.7-3.4c-0.4-0.9-1.1-1.3-2.1-1.3C101.4,110,100.7,110.4,100.2,111.2z"/>
		<path class="st21" d="M112.2,107.7h5.7v14h-3v-11.4h-2.7V107.7z"/>
		<path class="st22" d="M129,121.9c-1.9,0-3.4-0.7-4.4-2c-1-1.3-1.4-3.1-1.4-5.3c0-2.2,0.5-4,1.4-5.3c1-1.3,2.4-2,4.4-2
			c1.9,0,3.4,0.7,4.4,2c1,1.3,1.4,3.1,1.4,5.3c0,2.2-0.5,4-1.4,5.3C132.4,121.2,131,121.9,129,121.9z M127,111.2
			c-0.4,0.9-0.7,2-0.7,3.4c0,1.4,0.2,2.5,0.7,3.4c0.4,0.9,1.1,1.3,2.1,1.3c0.9,0,1.6-0.4,2.1-1.3c0.4-0.9,0.7-2,0.7-3.4
			c0-1.4-0.2-2.5-0.7-3.4c-0.4-0.9-1.1-1.3-2.1-1.3C128.1,110,127.4,110.4,127,111.2z"/>
		<path class="st23" d="M139,107.7h5.7v14h-3v-11.4H139V107.7z"/>
		<path class="st24" d="M155.7,121.9c-1.9,0-3.4-0.7-4.4-2c-1-1.3-1.4-3.1-1.4-5.3c0-2.2,0.5-4,1.4-5.3c1-1.3,2.4-2,4.4-2
			c1.9,0,3.4,0.7,4.4,2c1,1.3,1.4,3.1,1.4,5.3c0,2.2-0.5,4-1.4,5.3C159.1,121.2,157.7,121.9,155.7,121.9z M153.7,111.2
			c-0.4,0.9-0.7,2-0.7,3.4c0,1.4,0.2,2.5,0.7,3.4c0.4,0.9,1.1,1.3,2.1,1.3c0.9,0,1.6-0.4,2.1-1.3c0.4-0.9,0.7-2,0.7-3.4
			c0-1.4-0.2-2.5-0.7-3.4c-0.4-0.9-1.1-1.3-2.1-1.3C154.8,110,154.1,110.4,153.7,111.2z"/>
		<path class="st25" d="M172,121.9c-1.9,0-3.4-0.7-4.4-2c-1-1.3-1.4-3.1-1.4-5.3c0-2.2,0.5-4,1.4-5.3c1-1.3,2.4-2,4.4-2
			c1.9,0,3.4,0.7,4.4,2c1,1.3,1.4,3.1,1.4,5.3c0,2.2-0.5,4-1.4,5.3C175.4,121.2,173.9,121.9,172,121.9z M169.9,111.2
			c-0.4,0.9-0.7,2-0.7,3.4c0,1.4,0.2,2.5,0.7,3.4c0.4,0.9,1.1,1.3,2.1,1.3c0.9,0,1.6-0.4,2.1-1.3c0.4-0.9,0.7-2,0.7-3.4
			c0-1.4-0.2-2.5-0.7-3.4c-0.4-0.9-1.1-1.3-2.1-1.3C171.1,110,170.4,110.4,169.9,111.2z"/>
		<path class="st26" d="M188.2,121.9c-1.9,0-3.4-0.7-4.4-2c-1-1.3-1.4-3.1-1.4-5.3c0-2.2,0.5-4,1.4-5.3c1-1.3,2.4-2,4.4-2
			c1.9,0,3.4,0.7,4.4,2c1,1.3,1.4,3.1,1.4,5.3c0,2.2-0.5,4-1.4,5.3C191.6,121.2,190.2,121.9,188.2,121.9z M186.2,111.2
			c-0.4,0.9-0.7,2-0.7,3.4c0,1.4,0.2,2.5,0.7,3.4c0.4,0.9,1.1,1.3,2.1,1.3c0.9,0,1.6-0.4,2.1-1.3c0.4-0.9,0.7-2,0.7-3.4
			c0-1.4-0.2-2.5-0.7-3.4c-0.4-0.9-1.1-1.3-2.1-1.3C187.3,110,186.6,110.4,186.2,111.2z"/>
		<path class="st27" d="M198.2,107.7h5.7v14h-3v-11.4h-2.7V107.7z"/>
		<path class="st28" d="M69.3,131.8h5.7v14h-3v-11.4h-2.7V131.8z"/>
		<path class="st29" d="M80,131.8h5.7v14h-3v-11.4H80V131.8z"/>
		<path class="st27" d="M97,146c-1.9,0-3.4-0.7-4.4-2c-1-1.3-1.4-3.1-1.4-5.3c0-2.2,0.5-4,1.4-5.3c1-1.3,2.4-2,4.4-2
			c1.9,0,3.4,0.7,4.4,2c1,1.3,1.4,3.1,1.4,5.3c0,2.2-0.5,4-1.4,5.3C100.4,145.3,98.9,146,97,146z M94.9,135.3
			c-0.4,0.9-0.7,2-0.7,3.4c0,1.4,0.2,2.5,0.7,3.4c0.4,0.9,1.1,1.3,2.1,1.3c0.9,0,1.6-0.4,2.1-1.3s0.7-2,0.7-3.4
			c0-1.4-0.2-2.5-0.7-3.4c-0.4-0.9-1.1-1.3-2.1-1.3C96.1,134,95.4,134.5,94.9,135.3z"/>
		<path class="st30" d="M113.5,146c-1.9,0-3.4-0.7-4.4-2c-1-1.3-1.4-3.1-1.4-5.3c0-2.2,0.5-4,1.4-5.3c1-1.3,2.4-2,4.4-2
			c1.9,0,3.4,0.7,4.4,2c1,1.3,1.4,3.1,1.4,5.3c0,2.2-0.5,4-1.4,5.3C116.9,145.3,115.4,146,113.5,146z M111.4,135.3
			c-0.4,0.9-0.7,2-0.7,3.4c0,1.4,0.2,2.5,0.7,3.4c0.4,0.9,1.1,1.3,2.1,1.3c0.9,0,1.6-0.4,2.1-1.3c0.4-0.9,0.7-2,0.7-3.4
			c0-1.4-0.2-2.5-0.7-3.4c-0.4-0.9-1.1-1.3-2.1-1.3C112.5,134,111.8,134.5,111.4,135.3z"/>
		<path class="st31" d="M123.6,131.8h5.7v14h-3v-11.4h-2.7V131.8z"/>
		<path class="st32" d="M134.4,131.8h5.7v14h-3v-11.4h-2.7V131.8z"/>
		<path class="st33" d="M151.4,146c-1.9,0-3.4-0.7-4.4-2c-1-1.3-1.4-3.1-1.4-5.3c0-2.2,0.5-4,1.4-5.3c1-1.3,2.4-2,4.4-2
			c1.9,0,3.4,0.7,4.4,2c1,1.3,1.4,3.1,1.4,5.3c0,2.2-0.5,4-1.4,5.3C154.8,145.3,153.3,146,151.4,146z M149.3,135.3
			c-0.4,0.9-0.7,2-0.7,3.4c0,1.4,0.2,2.5,0.7,3.4c0.4,0.9,1.1,1.3,2.1,1.3c0.9,0,1.6-0.4,2.1-1.3c0.4-0.9,0.7-2,0.7-3.4
			c0-1.4-0.2-2.5-0.7-3.4c-0.4-0.9-1.1-1.3-2.1-1.3C150.4,134,149.7,134.5,149.3,135.3z"/>
		<path class="st34" d="M167.8,146c-1.9,0-3.4-0.7-4.4-2c-1-1.3-1.4-3.1-1.4-5.3c0-2.2,0.5-4,1.4-5.3c1-1.3,2.4-2,4.4-2
			c1.9,0,3.4,0.7,4.4,2c1,1.3,1.4,3.1,1.4,5.3c0,2.2-0.5,4-1.4,5.3C171.2,145.3,169.8,146,167.8,146z M165.8,135.3
			c-0.4,0.9-0.7,2-0.7,3.4c0,1.4,0.2,2.5,0.7,3.4c0.4,0.9,1.1,1.3,2.1,1.3c0.9,0,1.6-0.4,2.1-1.3c0.4-0.9,0.7-2,0.7-3.4
			c0-1.4-0.2-2.5-0.7-3.4c-0.4-0.9-1.1-1.3-2.1-1.3C166.9,134,166.2,134.5,165.8,135.3z"/>
		<path class="st35" d="M178,131.8h5.7v14h-3v-11.4H178V131.8z"/>
		<path class="st36" d="M195,146c-1.9,0-3.4-0.7-4.4-2c-1-1.3-1.4-3.1-1.4-5.3c0-2.2,0.5-4,1.4-5.3c1-1.3,2.4-2,4.4-2
			c1.9,0,3.4,0.7,4.4,2c1,1.3,1.4,3.1,1.4,5.3c0,2.2-0.5,4-1.4,5.3C198.4,145.3,197,146,195,146z M193,135.3c-0.4,0.9-0.7,2-0.7,3.4
			c0,1.4,0.2,2.5,0.7,3.4c0.4,0.9,1.1,1.3,2.1,1.3c0.9,0,1.6-0.4,2.1-1.3c0.4-0.9,0.7-2,0.7-3.4c0-1.4-0.2-2.5-0.7-3.4
			c-0.4-0.9-1.1-1.3-2.1-1.3C194.1,134,193.4,134.5,193,135.3z"/>
		<path class="st31" d="M75.6,170c-1.9,0-3.4-0.7-4.4-2c-1-1.3-1.4-3.1-1.4-5.3c0-2.2,0.5-4,1.4-5.3c1-1.3,2.4-2,4.4-2
			c1.9,0,3.4,0.7,4.4,2c1,1.3,1.4,3.1,1.4,5.3c0,2.2-0.5,4-1.4,5.3C79,169.4,77.5,170,75.6,170z M73.5,159.4c-0.4,0.9-0.7,2-0.7,3.4
			c0,1.4,0.2,2.5,0.7,3.4c0.4,0.9,1.1,1.3,2.1,1.3c0.9,0,1.6-0.4,2.1-1.3s0.7-2,0.7-3.4c0-1.4-0.2-2.5-0.7-3.4
			c-0.4-0.9-1.1-1.3-2.1-1.3C74.6,158.1,73.9,158.5,73.5,159.4z"/>
		<path class="st37" d="M91.6,170c-1.9,0-3.4-0.7-4.4-2c-1-1.3-1.4-3.1-1.4-5.3c0-2.2,0.5-4,1.4-5.3c1-1.3,2.4-2,4.4-2
			c1.9,0,3.4,0.7,4.4,2c1,1.3,1.4,3.1,1.4,5.3c0,2.2-0.5,4-1.4,5.3C95,169.4,93.6,170,91.6,170z M89.6,159.4c-0.4,0.9-0.7,2-0.7,3.4
			c0,1.4,0.2,2.5,0.7,3.4c0.4,0.9,1.1,1.3,2.1,1.3c0.9,0,1.6-0.4,2.1-1.3s0.7-2,0.7-3.4c0-1.4-0.2-2.5-0.7-3.4
			c-0.4-0.9-1.1-1.3-2.1-1.3C90.7,158.1,90,158.5,89.6,159.4z"/>
		<path class="st38" d="M101.4,155.8h5.7v14h-3v-11.4h-2.7V155.8z"/>
		<path class="st39" d="M111.7,155.8h5.7v14h-3v-11.4h-2.7V155.8z"/>
		<path class="st40" d="M128.3,170c-1.9,0-3.4-0.7-4.4-2c-1-1.3-1.4-3.1-1.4-5.3c0-2.2,0.5-4,1.4-5.3c1-1.3,2.4-2,4.4-2
			c1.9,0,3.4,0.7,4.4,2c1,1.3,1.4,3.1,1.4,5.3c0,2.2-0.5,4-1.4,5.3C131.7,169.4,130.2,170,128.3,170z M126.2,159.4
			c-0.4,0.9-0.7,2-0.7,3.4c0,1.4,0.2,2.5,0.7,3.4c0.4,0.9,1.1,1.3,2.1,1.3c0.9,0,1.6-0.4,2.1-1.3c0.4-0.9,0.7-2,0.7-3.4
			c0-1.4-0.2-2.5-0.7-3.4c-0.4-0.9-1.1-1.3-2.1-1.3C127.4,158.1,126.7,158.5,126.2,159.4z"/>
		<path class="st41" d="M144.4,170c-1.9,0-3.4-0.7-4.4-2c-1-1.3-1.4-3.1-1.4-5.3c0-2.2,0.5-4,1.4-5.3c1-1.3,2.4-2,4.4-2
			c1.9,0,3.4,0.7,4.4,2c1,1.3,1.4,3.1,1.4,5.3c0,2.2-0.5,4-1.4,5.3C147.7,169.4,146.3,170,144.4,170z M142.3,159.4
			c-0.4,0.9-0.7,2-0.7,3.4c0,1.4,0.2,2.5,0.7,3.4c0.4,0.9,1.1,1.3,2.1,1.3c0.9,0,1.6-0.4,2.1-1.3c0.4-0.9,0.7-2,0.7-3.4
			c0-1.4-0.2-2.5-0.7-3.4c-0.4-0.9-1.1-1.3-2.1-1.3C143.4,158.1,142.7,158.5,142.3,159.4z"/>
		<path class="st42" d="M154.1,155.8h5.7v14h-3v-11.4h-2.7V155.8z"/>
		<path class="st20" d="M170.7,170c-1.9,0-3.4-0.7-4.4-2c-1-1.3-1.4-3.1-1.4-5.3c0-2.2,0.5-4,1.4-5.3c1-1.3,2.4-2,4.4-2
			c1.9,0,3.4,0.7,4.4,2c1,1.3,1.4,3.1,1.4,5.3c0,2.2-0.5,4-1.4,5.3C174.1,169.4,172.7,170,170.7,170z M168.7,159.4
			c-0.4,0.9-0.7,2-0.7,3.4c0,1.4,0.2,2.5,0.7,3.4c0.4,0.9,1.1,1.3,2.1,1.3c0.9,0,1.6-0.4,2.1-1.3c0.4-0.9,0.7-2,0.7-3.4
			c0-1.4-0.2-2.5-0.7-3.4c-0.4-0.9-1.1-1.3-2.1-1.3C169.8,158.1,169.1,158.5,168.7,159.4z"/>
		<path class="st43" d="M186.8,170c-1.9,0-3.4-0.7-4.4-2c-1-1.3-1.4-3.1-1.4-5.3c0-2.2,0.5-4,1.4-5.3c1-1.3,2.4-2,4.4-2
			c1.9,0,3.4,0.7,4.4,2c1,1.3,1.4,3.1,1.4,5.3c0,2.2-0.5,4-1.4,5.3C190.2,169.4,188.7,170,186.8,170z M184.7,159.4
			c-0.4,0.9-0.7,2-0.7,3.4c0,1.4,0.2,2.5,0.7,3.4c0.4,0.9,1.1,1.3,2.1,1.3c0.9,0,1.6-0.4,2.1-1.3c0.4-0.9,0.7-2,0.7-3.4
			c0-1.4-0.2-2.5-0.7-3.4c-0.4-0.9-1.1-1.3-2.1-1.3C185.8,158.1,185.2,158.5,184.7,159.4z"/>
		<path class="st44" d="M202.8,170c-1.9,0-3.4-0.7-4.4-2c-1-1.3-1.4-3.1-1.4-5.3c0-2.2,0.5-4,1.4-5.3c1-1.3,2.4-2,4.4-2
			c1.9,0,3.4,0.7,4.4,2c1,1.3,1.4,3.1,1.4,5.3c0,2.2-0.5,4-1.4,5.3C206.2,169.4,204.8,170,202.8,170z M200.8,159.4
			c-0.4,0.9-0.7,2-0.7,3.4c0,1.4,0.2,2.5,0.7,3.4c0.4,0.9,1.1,1.3,2.1,1.3c0.9,0,1.6-0.4,2.1-1.3c0.4-0.9,0.7-2,0.7-3.4
			c0-1.4-0.2-2.5-0.7-3.4c-0.4-0.9-1.1-1.3-2.1-1.3C201.9,158.1,201.2,158.5,200.8,159.4z"/>
		<path class="st45" d="M69.3,179.9h5.7v14h-3v-11.4h-2.7V179.9z"/>
		<path class="st21" d="M86.1,194.1c-1.9,0-3.4-0.7-4.4-2c-1-1.3-1.4-3.1-1.4-5.3c0-2.2,0.5-4,1.4-5.3c1-1.3,2.4-2,4.4-2
			c1.9,0,3.4,0.7,4.4,2c1,1.3,1.4,3.1,1.4,5.3c0,2.2-0.5,4-1.4,5.3C89.4,193.4,88,194.1,86.1,194.1z M84,183.5
			c-0.4,0.9-0.7,2-0.7,3.4c0,1.4,0.2,2.5,0.7,3.4c0.4,0.9,1.1,1.3,2.1,1.3c0.9,0,1.6-0.4,2.1-1.3c0.4-0.9,0.7-2,0.7-3.4
			c0-1.4-0.2-2.5-0.7-3.4c-0.4-0.9-1.1-1.3-2.1-1.3C85.1,182.2,84.4,182.6,84,183.5z"/>
		<path class="st46" d="M96,179.9h5.7v14h-3v-11.4H96V179.9z"/>
		<path class="st43" d="M106.5,179.9h5.7v14h-3v-11.4h-2.7V179.9z"/>
		<path class="st29" d="M123.3,194.1c-1.9,0-3.4-0.7-4.4-2c-1-1.3-1.4-3.1-1.4-5.3c0-2.2,0.5-4,1.4-5.3c1-1.3,2.4-2,4.4-2
			c1.9,0,3.4,0.7,4.4,2c1,1.3,1.4,3.1,1.4,5.3c0,2.2-0.5,4-1.4,5.3C126.7,193.4,125.2,194.1,123.3,194.1z M121.2,183.5
			c-0.4,0.9-0.7,2-0.7,3.4c0,1.4,0.2,2.5,0.7,3.4c0.4,0.9,1.1,1.3,2.1,1.3c0.9,0,1.6-0.4,2.1-1.3c0.4-0.9,0.7-2,0.7-3.4
			c0-1.4-0.2-2.5-0.7-3.4c-0.4-0.9-1.1-1.3-2.1-1.3C122.3,182.2,121.6,182.6,121.2,183.5z"/>
		<path class="st47" d="M133.2,179.9h5.7v14h-3v-11.4h-2.7V179.9z"/>
		<path class="st48" d="M143.7,179.9h5.7v14h-3v-11.4h-2.7V179.9z"/>
		<path class="st30" d="M160.5,194.1c-1.9,0-3.4-0.7-4.4-2c-1-1.3-1.4-3.1-1.4-5.3c0-2.2,0.5-4,1.4-5.3c1-1.3,2.4-2,4.4-2
			c1.9,0,3.4,0.7,4.4,2c1,1.3,1.4,3.1,1.4,5.3c0,2.2-0.5,4-1.4,5.3C163.9,193.4,162.4,194.1,160.5,194.1z M158.4,183.5
			c-0.4,0.9-0.7,2-0.7,3.4c0,1.4,0.2,2.5,0.7,3.4c0.4,0.9,1.1,1.3,2.1,1.3c0.9,0,1.6-0.4,2.1-1.3c0.4-0.9,0.7-2,0.7-3.4
			c0-1.4-0.2-2.5-0.7-3.4c-0.4-0.9-1.1-1.3-2.1-1.3C159.5,182.2,158.9,182.6,158.4,183.5z"/>
		<path class="st49" d="M170.4,179.9h5.7v14h-3v-11.4h-2.7V179.9z"/>
		<path class="st50" d="M187.2,194.1c-1.9,0-3.4-0.7-4.4-2c-1-1.3-1.4-3.1-1.4-5.3c0-2.2,0.5-4,1.4-5.3c1-1.3,2.4-2,4.4-2
			c1.9,0,3.4,0.7,4.4,2c1,1.3,1.4,3.1,1.4,5.3c0,2.2-0.5,4-1.4,5.3C190.6,193.4,189.1,194.1,187.2,194.1z M185.1,183.5
			c-0.4,0.9-0.7,2-0.7,3.4c0,1.4,0.2,2.5,0.7,3.4c0.4,0.9,1.1,1.3,2.1,1.3c0.9,0,1.6-0.4,2.1-1.3c0.4-0.9,0.7-2,0.7-3.4
			c0-1.4-0.2-2.5-0.7-3.4c-0.4-0.9-1.1-1.3-2.1-1.3C186.3,182.2,185.6,182.6,185.1,183.5z"/>
		<path class="st51" d="M197.1,179.9h5.7v14h-3v-11.4h-2.7V179.9z"/>
	</g>
</g>
<g id="Wind_Turbine_Hologram">
	<path class="st16" d="M122,201.2l-0.7,0c0,0-1.6,0-2.4,0c-0.9,0-2.2-0.1-2.2-0.1l-0.6-0.1l1.4-56.9l5,0.1L122,201.2z M117.5,199.9
		c0.4,0,1,0.1,1.4,0.1c0.5,0,1.2,0,1.7,0l0.5-54.5l-2.3-0.1L117.5,199.9z"/>
	<path class="st16" d="M164.3,185.9c-0.9,0-2.8-1.6-10.9-8.8c-2.4-2.1-4.8-4.3-6.7-5.9c-4.1-3.4-13.3-9.8-17.4-12.2
		c-1.3-0.8-2.4-2.6-3.4-4.3c-0.7-1.1-1.3-2.2-1.9-2.8c-1.5-1.5-4.7-4.1-4.7-4.1l-0.4-0.3l1.5-3.7l0.6,0.2c0.4,0.1,10,3.4,22.5,16.5
		c22.4,23.4,21.8,24.4,21.5,25l-0.2,0.3l-0.4,0.1C164.4,185.9,164.4,185.9,164.3,185.9z M120.5,147.1c0.9,0.7,3.2,2.7,4.4,3.9
		c0.7,0.7,1.4,1.8,2.1,3c0.9,1.5,1.9,3.3,3,3.9c3.7,2.2,13.1,8.6,17.5,12.4c2,1.7,4.4,3.8,6.8,5.9c2.8,2.5,6,5.4,8.1,7
		c-2.5-3.1-8.5-9.9-19.9-21.8c-10.5-11-19.1-15-21.4-15.9L120.5,147.1z"/>
	<g>
		<path class="st16" d="M117.8,146.4l-0.1-0.6c-0.1-0.4-2-10.4,3-27.7c9-31.1,10.2-31.1,10.9-31.1l0.3,0l0.3,0.3
			c0.5,0.7,0.2,2.9-2.1,13.9c-0.6,3.1-1.3,6.3-1.8,8.8c-1,5.6-1.9,16.7-1.9,21.1c0,1.6-1,3.4-2,5.2c-0.6,1.1-1.2,2.2-1.4,3
			c-0.5,2-1.2,6.1-1.2,6.1l-0.1,0.5L117.8,146.4z M130.9,90.3c-1.5,3.7-4.3,12.4-8.9,28.1c-4.2,14.6-3.4,24.1-3.1,26.5l1.7-0.2
			c0.2-1.2,0.7-4.1,1.2-5.8c0.3-1,0.9-2.1,1.6-3.3c0.9-1.6,1.9-3.3,1.9-4.5c0-4.5,0.9-15.7,1.9-21.4c0.5-2.5,1.1-5.7,1.8-8.8
			C129.6,97.2,130.5,92.9,130.9,90.3z"/>
	</g>
	<g>
		<path class="st16" d="M64.2,165.3c-1,0-1.2-0.2-1.3-0.4l-0.2-0.3l0.1-0.4c0.3-0.8,2.4-1.6,13.1-5.2c3-1,6.1-2,8.5-2.9
			c5.4-1.9,15.4-6.7,19.3-8.9c1.4-0.8,3.5-0.8,5.5-0.8c1.3,0,2.5,0,3.3-0.2c2-0.5,5.9-2,5.9-2l0.5-0.2l2.4,3.1l-0.5,0.4
			c-0.3,0.3-8,6.9-25.5,11.3C73.6,164.2,66.6,165.3,64.2,165.3z M118.5,145.6c-1.1,0.4-3.9,1.4-5.6,1.9c-1,0.3-2.3,0.3-3.6,0.3
			c-1.8,0-3.8,0-4.9,0.6c-3.9,2.3-14,7.1-19.5,9c-2.4,0.9-5.5,1.9-8.5,2.9c-3.5,1.2-7.7,2.5-10.2,3.5c3.9-0.6,12.9-2.4,28.8-6.3
			c14.8-3.6,22.5-9.1,24.5-10.6L118.5,145.6z"/>
	</g>
	<g>
		<circle class="st16" cx="119.7" cy="145.7" r="2.2"/>
		<path class="st16" d="M119.7,148.5c-1.6,0-2.8-1.3-2.8-2.8s1.3-2.8,2.8-2.8c1.6,0,2.8,1.3,2.8,2.8S121.3,148.5,119.7,148.5z
			 M119.7,144.1c-0.8,0-1.5,0.7-1.5,1.5s0.7,1.5,1.5,1.5c0.8,0,1.5-0.7,1.5-1.5S120.5,144.1,119.7,144.1z"/>
	</g>
</g>
<g>
	<g>
		<path class="st14" d="M51.1,257.7c-2.2,0.2-3.7,0.2-6.2,0.2h-5.4v-39.3h5.4c2.5,0,4,0,6.2,0.2c8.6,0.8,14.6,7.1,14.6,18.9
			C65.6,249.4,59.7,256.9,51.1,257.7z M55.7,205.5c-3.4-0.4-4.9-0.4-8.4-0.4h-25v66.1h25c3.5,0,5.1,0,8.4-0.4
			c15.3-1.7,28-12.8,28-33.5S71,207.3,55.7,205.5z"/>
	</g>
	<g>
		<path class="st14" d="M115.1,220.4l6.1,20.3H109L115.1,220.4z M125.4,254.1l5.6,17.1h18.8l-23.9-66.1h-21.1L81,271.3h18.3
			l5.6-17.1H125.4z"/>
	</g>
	<polygon class="st14" points="200.9,257.8 167.5,257.8 167.5,244.8 198,244.8 198,231.4 167.5,231.4 167.5,218.6 199.9,218.6 
		199.9,205.2 150.2,205.2 150.2,271.3 200.9,271.3 	"/>
	<polygon class="st14" points="240.2,236.3 268.7,205.2 248.1,205.2 222.9,234.4 222.9,205.2 205.7,205.2 205.7,271.3 222.9,271.3 
		222.9,250.9 227.6,245.8 246.3,271.3 267.8,271.3 	"/>
	<rect x="271.1" y="205.2" class="st14" width="17.2" height="66.1"/>
	<path class="st14" d="M358.6,271.3v-66.1h-17.2v28.3c0,3.8,0.1,10.6,0.6,17.3l-25.1-45.6h-21.5v66.1h17.2V244c0-3.8,0-9.7-0.6-16.4
		l24,43.7H358.6z"/>
	<g>
		<path class="st52" d="M46.8,253.4c-2.2,0.2-3.7,0.2-6.2,0.2h-5.4v-39.3h5.4c2.5,0,4,0,6.2,0.2c8.6,0.8,14.6,7.1,14.6,18.9
			C61.4,245.2,55.5,252.7,46.8,253.4z M51.4,201.3c-3.4-0.4-4.9-0.4-8.4-0.4H18V267h25c3.5,0,5.1,0,8.4-0.4
			c15.3-1.7,28-12.8,28-33.5C79.4,212.4,66.8,203,51.4,201.3z"/>
		<path class="st52" d="M110.9,216.2l6.1,20.3h-12.3L110.9,216.2z M121.2,249.9l5.6,17.1h18.8l-23.9-66.1h-21.1L76.7,267H95
			l5.6-17.1H121.2z"/>
		<polygon class="st52" points="196.6,253.6 163.2,253.6 163.2,240.6 193.8,240.6 193.8,227.2 163.2,227.2 163.2,214.3 195.7,214.3 
			195.7,200.9 146,200.9 146,267 196.6,267 		"/>
		<polygon class="st52" points="235.9,232.1 264.5,200.9 243.9,200.9 218.7,230.1 218.7,200.9 201.4,200.9 201.4,267 218.7,267 
			218.7,246.7 223.4,241.5 242.1,267 263.6,267 		"/>
		<rect x="266.9" y="200.9" class="st52" width="17.2" height="66.1"/>
		<path class="st52" d="M354.4,267v-66.1h-17.2v28.3c0,3.8,0.1,10.6,0.6,17.3l-25.1-45.6h-21.5V267h17.2v-27.3c0-3.8,0-9.7-0.6-16.4
			l24,43.7H354.4z"/>
	</g>
</g>
<path class="st16" d="M355.3,267.9h-23.9L309,227.3c0.3,5,0.3,9.4,0.3,12.5v28.2h-19v-67.8h22.8l23.5,42.6
	c-0.3-5.9-0.3-11.2-0.3-13.5v-29.1h19V267.9z M332.4,266.1h21.1v-64.3h-15.5v27.4c0,2.8,0.1,10,0.6,17.3l-1.6,0.5l-24.8-45.1h-20.1
	v64.3h15.5v-26.4c0-3.8,0-9.6-0.6-16.3l1.6-0.5L332.4,266.1z M285,267.9h-19v-67.3l-28.9,31.5l28.3,35.8h-23.8l-18.3-25l-3.8,4.1
	v20.8h-19v-67.8h19v27.7l23.9-27.7H285V267.9z M267.7,266.1h15.5v-64.3h-15.5V266.1z M242.5,266.1h19.3l-27-34.1l27.7-30.2h-18.2
	l-26.5,30.7v-30.7h-15.5v64.3h15.5v-19.8l5.6-6.2L242.5,266.1z M197.5,267.9h-71.4l-5.5-17.1h-19.3l-5.5,17.1H75.5l24.5-67.8h22.3
	l22.9,63.3v-63.3h51.4v15.2h-32.5v11.1h30.6v15.2h-30.6v11.3h33.4V267.9z M146.9,266.1h48.9v-11.7h-33.4v-14.8h30.6V228h-30.6v-14.6
	h32.5v-11.7h-47.9V266.1z M127.3,266.1h16.9L121,201.8h-19.8L78,266.1h16.4l5.5-17.1h21.9L127.3,266.1z M43,267.9H17.1v-67.8H43
	c3.5,0,5.1,0,8.5,0.4h0c18.3,2.1,28.7,14,28.7,32.7c0,23-14.9,32.8-28.7,34.4C48.1,267.9,46.5,267.9,43,267.9z M18.9,266.1H43
	c3.6,0,5,0,8.3-0.4c13.1-1.5,27.2-10.8,27.2-32.7c0-24.2-17-29.8-27.2-30.9c-3.3-0.4-4.8-0.4-8.3-0.4H18.9V266.1z M40.6,254.5h-6.2
	v-41h6.2c2.5,0,4.1,0,6.3,0.2c9.6,0.9,15.3,8.2,15.3,19.7c0,11.9-6,20.1-15.3,20.9C44.7,254.5,43.1,254.5,40.6,254.5z M36.1,252.7
	h4.5c2.5,0,4,0,6.2-0.2l0,0c8.4-0.7,13.7-8.2,13.7-19.1c0-10.7-5-17.2-13.7-18c-2.2-0.2-3.7-0.2-6.2-0.2h-4.5V252.7z M118.2,237.3
	h-14.6l7.3-24.2L118.2,237.3z M106,235.6h9.9l-4.9-16.4L106,235.6z"/>
<linearGradient id="SVGID_9_" gradientUnits="userSpaceOnUse" x1="243.7934" y1="161.004" x2="250.0063" y2="161.004">
	<stop  offset="6.149733e-02" style="stop-color:#00E5ED"/>
	<stop  offset="0.1899" style="stop-color:#04E5ED;stop-opacity:0.9316"/>
	<stop  offset="0.3091" style="stop-color:#0FE7EE;stop-opacity:0.8681"/>
	<stop  offset="0.4248" style="stop-color:#22E8EF;stop-opacity:0.8064"/>
	<stop  offset="0.5383" style="stop-color:#3CEBF1;stop-opacity:0.746"/>
	<stop  offset="0.6502" style="stop-color:#5EEFF4;stop-opacity:0.6863"/>
	<stop  offset="0.761" style="stop-color:#88F3F7;stop-opacity:0.6273"/>
	<stop  offset="0.8707" style="stop-color:#BAF8FA;stop-opacity:0.5689"/>
	<stop  offset="0.9772" style="stop-color:#F2FEFE;stop-opacity:0.5122"/>
	<stop  offset="1" style="stop-color:#FFFFFF;stop-opacity:0.5"/>
</linearGradient>
<path class="st53" d="M246.9,164.9c-1,0-1.8-0.4-2.3-1.1c-0.5-0.7-0.8-1.6-0.8-2.8c0-1.2,0.3-2.1,0.8-2.8c0.5-0.7,1.3-1.1,2.3-1.1
	c1,0,1.8,0.4,2.3,1.1c0.5,0.7,0.8,1.6,0.8,2.8c0,1.2-0.3,2.1-0.8,2.8C248.7,164.5,247.9,164.9,246.9,164.9z M245.8,159.2
	c-0.2,0.5-0.4,1.1-0.4,1.8c0,0.8,0.1,1.4,0.4,1.8c0.2,0.5,0.6,0.7,1.1,0.7c0.5,0,0.9-0.2,1.1-0.7c0.2-0.5,0.4-1.1,0.4-1.8
	c0-0.8-0.1-1.4-0.4-1.8c-0.2-0.5-0.6-0.7-1.1-0.7C246.4,158.5,246,158.7,245.8,159.2z"/>
<linearGradient id="SVGID_10_" gradientUnits="userSpaceOnUse" x1="210.0662" y1="188.1334" x2="213.0277" y2="188.1334">
	<stop  offset="6.149733e-02" style="stop-color:#00E5ED"/>
	<stop  offset="0.1899" style="stop-color:#04E5ED;stop-opacity:0.9316"/>
	<stop  offset="0.3091" style="stop-color:#0FE7EE;stop-opacity:0.8681"/>
	<stop  offset="0.4248" style="stop-color:#22E8EF;stop-opacity:0.8064"/>
	<stop  offset="0.5383" style="stop-color:#3CEBF1;stop-opacity:0.746"/>
	<stop  offset="0.6502" style="stop-color:#5EEFF4;stop-opacity:0.6863"/>
	<stop  offset="0.761" style="stop-color:#88F3F7;stop-opacity:0.6273"/>
	<stop  offset="0.8707" style="stop-color:#BAF8FA;stop-opacity:0.5689"/>
	<stop  offset="0.9772" style="stop-color:#F2FEFE;stop-opacity:0.5122"/>
	<stop  offset="1" style="stop-color:#FFFFFF;stop-opacity:0.5"/>
</linearGradient>
<path class="st54" d="M210.1,184.5h3v7.3h-1.6v-5.9h-1.4V184.5z"/>
<linearGradient id="SVGID_11_" gradientUnits="userSpaceOnUse" x1="311.064" y1="157.0377" x2="314.1061" y2="157.0377">
	<stop  offset="6.149733e-02" style="stop-color:#00E5ED"/>
	<stop  offset="0.1899" style="stop-color:#04E5ED;stop-opacity:0.9316"/>
	<stop  offset="0.3091" style="stop-color:#0FE7EE;stop-opacity:0.8681"/>
	<stop  offset="0.4248" style="stop-color:#22E8EF;stop-opacity:0.8064"/>
	<stop  offset="0.5383" style="stop-color:#3CEBF1;stop-opacity:0.746"/>
	<stop  offset="0.6502" style="stop-color:#5EEFF4;stop-opacity:0.6863"/>
	<stop  offset="0.761" style="stop-color:#88F3F7;stop-opacity:0.6273"/>
	<stop  offset="0.8707" style="stop-color:#BAF8FA;stop-opacity:0.5689"/>
	<stop  offset="0.9772" style="stop-color:#F2FEFE;stop-opacity:0.5122"/>
	<stop  offset="1" style="stop-color:#FFFFFF;stop-opacity:0.5"/>
</linearGradient>
<path class="st55" d="M311.1,153.3h3v7.5h-1.6v-6.1h-1.4V153.3z"/>
<path class="st16" d="M287.8,178.7c0,0.1,0.1,0.1,0.1,0.2c0.3,0.6,0.5,1.3,0.7,2c3-2.7,6.2-5.5,9.3-8.3c3.3-2.9,6.5-5.8,9.7-8.6
	c-0.6-0.4-1.1-0.9-1.6-1.4c-2.9,2.6-5.9,5.2-8.9,7.9C294,173.2,290.8,176,287.8,178.7z"/>
</svg>
