<?xml version="1.0" encoding="utf-8"?>
<!-- Generator: Adobe Illustrator 25.2.1, SVG Export Plug-In . SVG Version: 6.00 Build 0)  -->
<svg version="1.1" id="Capa_1" xmlns="http://www.w3.org/2000/svg" xmlns:xlink="http://www.w3.org/1999/xlink" x="0px" y="0px"
	 viewBox="0 0 25 16" style="enable-background:new 0 0 25 16;" xml:space="preserve">
<style type="text/css">
	.st0{fill:#DF6A11;}
</style>
<polygon class="st0" points="20.1,5.1 20.1,7.3 4.9,7.3 4.9,5.1 0,7.9 4.9,10.7 4.9,8.4 20.1,8.4 20.1,10.7 25,7.9 "/>
</svg>
