<?xml version="1.0" encoding="utf-8"?>
<!-- Generator: Adobe Illustrator 25.2.3, SVG Export Plug-In . SVG Version: 6.00 Build 0)  -->
<svg version="1.1" id="Layer_1" xmlns="http://www.w3.org/2000/svg" xmlns:xlink="http://www.w3.org/1999/xlink" x="0px" y="0px"
	 viewBox="0 0 579 42" style="enable-background:new 0 0 579 42;" xml:space="preserve">
<style type="text/css">
	.st0{fill:none;stroke:#000000;}
</style>
<g>
	<g>
		<line class="st0" x1="574" y1="0.2" x2="574" y2="42"/>
	</g>
</g>
<line class="st0" x1="4.7" y1="41.5" x2="574" y2="41.5"/>
<g>
	<g>
		<line class="st0" x1="5" y1="0.2" x2="5" y2="42"/>
	</g>
</g>
</svg>
