<svg width="91" height="8" viewBox="0 0 91 8" fill="none" xmlns="http://www.w3.org/2000/svg">
<path d="M90.3536 4.35355C90.5488 4.15829 90.5488 3.84171 90.3536 3.64645L87.1716 0.464466C86.9763 0.269204 86.6597 0.269204 86.4645 0.464466C86.2692 0.659728 86.2692 0.976311 86.4645 1.17157L89.2929 4L86.4645 6.82843C86.2692 7.02369 86.2692 7.34027 86.4645 7.53553C86.6597 7.7308 86.9763 7.7308 87.1716 7.53553L90.3536 4.35355ZM0 4.5H90V3.5H0V4.5Z" fill="#00E5ED"/>
</svg>
