<?xml version="1.0" encoding="utf-8"?>
<!-- Generator: Adobe Illustrator 25.2.1, SVG Export Plug-In . SVG Version: 6.00 Build 0)  -->
<svg version="1.1" id="Capa_1" xmlns="http://www.w3.org/2000/svg" xmlns:xlink="http://www.w3.org/1999/xlink" x="0px" y="0px"
	 viewBox="0 0 16 21" style="enable-background:new 0 0 16 21;" xml:space="preserve">
<style type="text/css">
	.st0{display:none;fill:#DF6A11;}
	.st1{fill:#DF6A11;}
</style>
<path class="st0" d="M0,0v21h16V0H0z M15.6,0.4v2.7H0.4V0.4H15.6z M0.4,20.6v-17h15.1v17H0.4z M1.3,1.8c0-0.2,0.2-0.4,0.4-0.4
	s0.4,0.2,0.4,0.4S1.9,2.2,1.7,2.2S1.3,2,1.3,1.8z M2.8,1.8c0-0.2,0.2-0.4,0.4-0.4s0.4,0.2,0.4,0.4S3.4,2.2,3.1,2.2S2.8,2,2.8,1.8z
	 M4.2,1.8c0-0.2,0.2-0.4,0.4-0.4S5,1.6,5,1.8S4.8,2.2,4.6,2.2S4.2,2,4.2,1.8z M4.7,8.7l-1.5,3.9h0.6l0.4-1.2h1.6l0.4,1.2h0.6
	L5.3,8.7H4.7z M4.3,11l0.6-1.7L5.6,11H4.3z M8.5,9.7c-0.2,0-0.4,0.1-0.6,0.2C7.8,9.9,7.7,10,7.6,10.2V9.8H7.1v4h0.5v-1.5
	c0.1,0.1,0.2,0.2,0.3,0.3c0.1,0.1,0.3,0.1,0.6,0.1c0.3,0,0.5-0.1,0.7-0.3c0.3-0.3,0.5-0.7,0.5-1.3c0-0.5-0.1-0.8-0.3-1.1
	C9.1,9.8,8.8,9.7,8.5,9.7z M8.9,12c-0.2,0.2-0.3,0.3-0.6,0.3c-0.3,0-0.6-0.1-0.7-0.4c-0.1-0.2-0.1-0.3-0.1-0.6c0-0.3,0-0.5,0.1-0.7
	c0.1-0.3,0.4-0.5,0.7-0.5c0.3,0,0.6,0.2,0.7,0.5c0.1,0.2,0.1,0.4,0.1,0.6C9.2,11.6,9.1,11.8,8.9,12z M11.6,9.7
	c-0.2,0-0.4,0.1-0.6,0.2c-0.1,0.1-0.2,0.2-0.3,0.3V9.8h-0.5v4h0.5v-1.5c0.1,0.1,0.2,0.2,0.3,0.3c0.1,0.1,0.3,0.1,0.6,0.1
	c0.3,0,0.5-0.1,0.7-0.3c0.3-0.3,0.5-0.7,0.5-1.3c0-0.5-0.1-0.8-0.3-1.1C12.2,9.8,11.9,9.7,11.6,9.7z M12,12
	c-0.2,0.2-0.3,0.3-0.6,0.3c-0.3,0-0.6-0.1-0.7-0.4c-0.1-0.2-0.1-0.3-0.1-0.6c0-0.3,0-0.5,0.1-0.7c0.1-0.3,0.4-0.5,0.7-0.5
	c0.3,0,0.6,0.2,0.7,0.5c0.1,0.2,0.1,0.4,0.1,0.6C12.2,11.6,12.2,11.8,12,12z"/>
<path class="st0" d="M16,4.6L16,4.6l0-0.1L11.4,0H0v21h16V5.1h0V4.6z M11.6,0.8l3.9,3.9h-3.9V0.8z M15.5,20.6H0.4V0.4h10.7v4.6h4.4
	V20.6z M2.1,8.5h0.8L4,11.8l1.1-3.3h0.8v3.9H5.4v-2.3c0-0.1,0-0.2,0-0.4c0-0.2,0-0.4,0-0.6l-1.1,3.3H3.7L2.6,9.1v0.1
	c0,0.1,0,0.2,0,0.4c0,0.2,0,0.3,0,0.4v2.3H2.1V8.5z M8.5,9.6C8.7,9.7,8.8,9.8,8.9,10c0.1,0.1,0.2,0.3,0.2,0.5c0,0.1,0,0.3,0,0.6H7
	c0,0.3,0.1,0.5,0.2,0.7c0.1,0.2,0.3,0.3,0.6,0.3c0.3,0,0.5-0.1,0.6-0.3c0.1-0.1,0.1-0.2,0.2-0.3h0.5c0,0.1-0.1,0.2-0.1,0.4
	c-0.1,0.1-0.2,0.2-0.2,0.3c-0.1,0.1-0.3,0.2-0.5,0.3c-0.1,0-0.2,0-0.4,0c-0.4,0-0.7-0.1-0.9-0.4c-0.2-0.3-0.4-0.6-0.4-1.1
	c0-0.5,0.1-0.8,0.4-1.1s0.6-0.4,1-0.4C8.1,9.5,8.3,9.5,8.5,9.6z M8.6,10.8c0-0.2-0.1-0.4-0.1-0.5C8.4,10,8.1,9.9,7.8,9.9
	c-0.2,0-0.4,0.1-0.6,0.2C7.1,10.3,7,10.5,7,10.8H8.6z M9.8,8.7h0.5v0.8h0.5v0.4h-0.5v1.9c0,0.1,0,0.2,0.1,0.2c0,0,0.1,0,0.2,0
	c0,0,0,0,0.1,0c0,0,0.1,0,0.1,0v0.4c-0.1,0-0.1,0-0.2,0c-0.1,0-0.1,0-0.2,0c-0.2,0-0.4-0.1-0.5-0.2c-0.1-0.1-0.1-0.3-0.1-0.5V9.9
	H9.5V9.5h0.4V8.7z M12.8,10.7c0.1,0,0.2-0.1,0.2-0.1c0,0,0-0.1,0-0.2c0-0.2-0.1-0.3-0.2-0.4c-0.1-0.1-0.3-0.1-0.5-0.1
	c-0.3,0-0.4,0.1-0.5,0.2c-0.1,0.1-0.1,0.2-0.1,0.3h-0.5c0-0.4,0.1-0.6,0.3-0.7c0.2-0.1,0.5-0.2,0.8-0.2c0.3,0,0.6,0.1,0.8,0.2
	c0.2,0.1,0.3,0.3,0.3,0.6v1.7c0,0.1,0,0.1,0,0.1c0,0,0.1,0,0.1,0c0,0,0,0,0.1,0c0,0,0.1,0,0.1,0v0.4c-0.1,0-0.1,0-0.2,0
	c0,0-0.1,0-0.2,0c-0.2,0-0.3-0.1-0.4-0.2c0-0.1-0.1-0.2-0.1-0.3c-0.1,0.1-0.2,0.2-0.4,0.3c-0.2,0.1-0.4,0.1-0.6,0.1
	c-0.3,0-0.5-0.1-0.7-0.2c-0.2-0.2-0.3-0.4-0.3-0.6c0-0.3,0.1-0.5,0.3-0.6c0.2-0.1,0.4-0.2,0.7-0.3L12.8,10.7z M11.8,12
	c0.1,0.1,0.2,0.1,0.4,0.1c0.2,0,0.3,0,0.5-0.1c0.3-0.1,0.4-0.3,0.4-0.6V11c-0.1,0-0.1,0.1-0.2,0.1c-0.1,0-0.2,0-0.3,0.1l-0.3,0
	c-0.2,0-0.3,0.1-0.4,0.1c-0.2,0.1-0.2,0.2-0.2,0.4C11.7,11.8,11.7,11.9,11.8,12z"/>
<g>
	<path class="st1" d="M16,4.6V4.5L11.4,0H0v21h16V5.1h0L16,4.6L16,4.6z M11.6,0.8l3.9,3.9h-3.9V0.8z M15.5,20.6H0.4V0.4h10.7v4.6
		h4.4V20.6z"/>
	<path class="st1" d="M4.1,8.7H2.5v3.9h1.6c0.7,0,1.1-0.3,1.4-0.9c0.2-0.3,0.2-0.7,0.2-1.1c0-0.5-0.1-1-0.4-1.3
		C5,8.9,4.6,8.7,4.1,8.7z M5.1,11.1c0,0.2-0.1,0.5-0.2,0.6c-0.1,0.2-0.3,0.3-0.5,0.4c-0.1,0-0.3,0.1-0.4,0.1H3v-3H4
		c0.4,0,0.7,0.1,0.9,0.4c0.2,0.3,0.3,0.7,0.3,1.1C5.2,10.8,5.2,11,5.1,11.1z"/>
	<path class="st1" d="M8.8,12.3c-0.1,0-0.1,0-0.1,0c0,0,0-0.1,0-0.1v-1.7c0-0.3-0.1-0.5-0.3-0.6C8.1,9.8,7.9,9.7,7.5,9.7
		C7.2,9.7,7,9.8,6.8,9.9c-0.2,0.1-0.3,0.4-0.3,0.7h0.5c0-0.1,0.1-0.3,0.1-0.3c0.1-0.1,0.3-0.2,0.5-0.2c0.2,0,0.4,0,0.5,0.1
		c0.1,0.1,0.2,0.2,0.2,0.4c0,0.1,0,0.1,0,0.2c0,0.1-0.1,0.1-0.2,0.1L7.2,11c-0.3,0-0.5,0.1-0.7,0.3c-0.2,0.1-0.3,0.4-0.3,0.6
		c0,0.2,0.1,0.4,0.3,0.6c0.2,0.2,0.4,0.2,0.7,0.2c0.2,0,0.4,0,0.6-0.1c0.2-0.1,0.3-0.2,0.4-0.3c0,0.1,0,0.2,0.1,0.3
		c0.1,0.1,0.2,0.2,0.4,0.2c0.1,0,0.1,0,0.2,0c0,0,0.1,0,0.2,0v-0.4C9,12.3,8.9,12.3,8.8,12.3C8.9,12.3,8.9,12.3,8.8,12.3z M8.2,11.6
		c0,0.3-0.1,0.5-0.4,0.6c-0.2,0.1-0.3,0.1-0.5,0.1c-0.1,0-0.3,0-0.4-0.1c-0.1-0.1-0.2-0.2-0.2-0.3c0-0.2,0.1-0.3,0.2-0.4
		c0.1,0,0.2-0.1,0.4-0.1l0.3,0c0.1,0,0.2,0,0.3-0.1c0.1,0,0.2-0.1,0.2-0.1V11.6z"/>
	<path class="st1" d="M10.1,9H9.6v0.8H9.2v0.4h0.4v1.9c0,0.2,0,0.3,0.1,0.5c0.1,0.1,0.2,0.2,0.5,0.2c0.1,0,0.1,0,0.2,0
		c0.1,0,0.1,0,0.2,0v-0.4c0,0-0.1,0-0.1,0c0,0-0.1,0-0.1,0c-0.1,0-0.2,0-0.2,0c-0.1,0-0.1-0.1-0.1-0.2v-1.9h0.5V9.8h-0.5V9z"/>
	<path class="st1" d="M11.5,10.6c0-0.1,0.1-0.3,0.1-0.3c0.1-0.1,0.3-0.2,0.5-0.2c0.2,0,0.4,0,0.5,0.1c0.1,0.1,0.2,0.2,0.2,0.4
		c0,0.1,0,0.1,0,0.2c0,0.1-0.1,0.1-0.2,0.1L11.8,11c-0.3,0-0.5,0.1-0.7,0.3c-0.2,0.1-0.3,0.4-0.3,0.6c0,0.2,0.1,0.4,0.3,0.6
		c0.2,0.2,0.4,0.2,0.7,0.2c0.2,0,0.4,0,0.6-0.1c0.2-0.1,0.3-0.2,0.4-0.3c0,0.1,0,0.2,0.1,0.3c0.1,0.1,0.2,0.2,0.4,0.2
		c0.1,0,0.1,0,0.2,0c0,0,0.1,0,0.2,0v-0.4c0,0-0.1,0-0.1,0s-0.1,0-0.1,0c-0.1,0-0.1,0-0.1,0c0,0,0-0.1,0-0.1v-1.7
		c0-0.3-0.1-0.5-0.3-0.6c-0.2-0.1-0.5-0.2-0.8-0.2c-0.3,0-0.6,0.1-0.8,0.2C11.2,10,11,10.3,11,10.6H11.5z M12.8,11.6
		c0,0.3-0.1,0.5-0.4,0.6c-0.2,0.1-0.3,0.1-0.5,0.1c-0.1,0-0.3,0-0.4-0.1c-0.1-0.1-0.2-0.2-0.2-0.3c0-0.2,0.1-0.3,0.2-0.4
		c0.1,0,0.2-0.1,0.4-0.1l0.3,0c0.1,0,0.2,0,0.3-0.1c0.1,0,0.2-0.1,0.2-0.1V11.6z"/>
</g>
</svg>
