<svg width="27" height="27" viewBox="0 0 27 27" fill="none" xmlns="http://www.w3.org/2000/svg">
<g clip-path="url(#clip0)">
<path d="M23.0459 3.95459C20.4961 1.40478 17.1059 0.000567065 13.4999 0.000567065C11.0739 0.000567065 8.71821 0.644612 6.64638 1.86779L5.01082 0.232229C4.78459 0.00594598 4.44435 -0.0617122 4.14877 0.060737C3.8532 0.183186 3.66045 0.47159 3.66045 0.79153V4.57638C3.66045 5.01323 4.01462 5.3674 4.45147 5.3674H8.23637C8.55631 5.3674 8.84477 5.17471 8.96716 4.87908C9.08956 4.5835 9.0219 4.24326 8.79567 4.01703L7.80674 3.0281C9.54687 2.08009 11.496 1.58255 13.5 1.58255C20.0715 1.58255 25.418 6.92891 25.418 13.5005C25.418 20.0721 20.0715 25.4185 13.5 25.4185C6.9284 25.4185 1.58203 20.0721 1.58203 13.5005C1.58203 13.0637 1.22787 12.7095 0.791016 12.7095C0.354164 12.7095 0 13.0637 0 13.5005C0 17.1065 1.40421 20.4966 3.95402 23.0464C6.50389 25.5962 9.89402 27.0005 13.4999 27.0005C17.1059 27.0005 20.4961 25.5962 23.0459 23.0464C25.5958 20.4966 27 17.1064 27 13.5005C27 9.89459 25.5957 6.5044 23.0459 3.95459Z" fill="#FB6410"/>
<path d="M20.8868 13.6902H14.3932V7.19661C14.3932 6.53568 13.8575 6 13.1966 6C12.5358 6 12 6.53576 12 7.19661V14.8868C12 15.5476 12.5358 16.0834 13.1966 16.0834H20.8868C21.5477 16.0834 22.0834 15.5476 22.0834 14.8868C22.0834 14.226 21.5477 13.6902 20.8868 13.6902Z" fill="#FB6410"/>
</g>
<defs>
<clipPath id="clip0">
<rect width="27" height="27" fill="white"/>
</clipPath>
</defs>
</svg>
