<svg width="71" height="72" viewBox="0 0 71 72" fill="none" xmlns="http://www.w3.org/2000/svg">
<path d="M69.2953 44.534L66.3645 43.846C66.2098 43.0932 66.0117 42.3487 65.7715 41.6183L67.9547 39.5603C68.3203 39.2163 68.4281 38.6756 68.2219 38.215C67.5844 36.799 66.7992 35.436 65.8863 34.1614C65.5934 33.7526 65.0766 33.5759 64.5938 33.7232L61.7531 34.5902C61.241 34.013 60.6961 33.464 60.1195 32.9492L60.9844 30.0948C61.1297 29.613 60.9551 29.0911 60.5484 28.7966C59.918 28.3396 59.2652 27.9143 58.5938 27.5232V6.67556C58.5938 3.42772 55.9652 0.7854 52.7344 0.7854H5.85938C2.62852 0.7854 0 3.42772 0 6.67556V37.3044C0 40.5522 2.62852 43.1945 5.85938 43.1945H18.2496L14.4141 53.7968H8.20312C7.55508 53.7968 7.03125 54.3246 7.03125 54.9748C7.03125 58.2227 9.65977 60.865 12.8906 60.865H27.3574C27.5285 61.1253 27.682 61.3975 27.8637 61.6507C28.1566 62.0595 28.6711 62.2362 29.1562 62.089L31.9969 61.222C32.509 61.7992 33.0539 62.3481 33.6305 62.8629L32.7656 65.7173C32.6203 66.1991 32.7949 66.721 33.2016 67.0155C34.4672 67.9332 35.8242 68.7237 37.2352 69.3645C37.6934 69.573 38.2301 69.4658 38.5734 69.0959L40.6195 66.9001C41.3438 67.1416 42.0855 67.3406 42.8367 67.4961L43.5211 70.4436C43.6359 70.9348 44.0473 71.2988 44.5477 71.3483C45.3375 71.4272 46.1215 71.4673 46.875 71.4673C47.6285 71.4673 48.4125 71.4272 49.2035 71.3495C49.7039 71.3 50.1152 70.936 50.2301 70.4448L50.9145 67.4973C51.6656 67.3418 52.4062 67.1427 53.1316 66.9012L55.1777 69.0971C55.5223 69.4658 56.0602 69.5742 56.516 69.3657C57.9223 68.726 59.2793 67.9355 60.5473 67.0167C60.9551 66.7222 61.1297 66.2003 60.9844 65.7173L60.1207 62.8618C60.6961 62.347 61.2422 61.798 61.7543 61.2208L64.5949 62.089C65.0719 62.2362 65.5945 62.0595 65.8875 61.6507C66.7992 60.3773 67.5855 59.0143 68.223 57.5971C68.4305 57.1377 68.3227 56.597 67.9559 56.2518L65.7727 54.1938C66.0129 53.4634 66.2109 52.7189 66.3656 51.965L69.2965 51.277C69.7852 51.1627 70.1473 50.7481 70.1965 50.2462C70.2727 49.4546 70.3125 48.6665 70.3125 47.9067C70.3125 47.1468 70.2727 46.3587 70.1941 45.5647C70.1449 45.0629 69.784 44.6482 69.2953 44.534ZM5.85938 3.14146H52.7344C54.6727 3.14146 56.25 4.72709 56.25 6.67556V26.3734C55.8633 26.2992 55.4578 26.4158 55.1777 26.715L53.1316 28.9109C52.4074 28.6694 51.6656 28.4703 50.9145 28.3148L50.2301 25.3674C50.1152 24.8761 49.7039 24.5121 49.2035 24.4627C47.6191 24.306 46.1297 24.306 44.5453 24.4627C44.0449 24.5121 43.6336 24.8761 43.5188 25.3674L42.8344 28.3148C42.0832 28.4703 41.3426 28.6694 40.6172 28.9109L38.5711 26.715C38.2277 26.3475 37.691 26.2391 37.2328 26.4465C35.8266 27.0861 34.4695 27.8766 33.2016 28.7955C32.7938 29.09 32.6191 29.6118 32.7645 30.0948L33.1652 31.4142H9.375V17.2778H21.0938V14.9218H9.375V7.85359H49.2188V21.99H51.5625V6.67556C51.5625 6.02528 51.0387 5.49753 50.3906 5.49753H8.20312C7.55508 5.49753 7.03125 6.02528 7.03125 6.67556V31.4142H2.34375V6.67556C2.34375 4.72709 3.92109 3.14146 5.85938 3.14146ZM32.8125 33.7703C32.5406 34.0436 32.2512 34.3016 31.9957 34.5902L29.3109 33.7703H32.8125ZM2.34375 37.3044V33.7703H28.3699C28.173 33.8516 27.9949 33.9788 27.8637 34.1614C26.952 35.4348 26.1656 36.7978 25.5281 38.215C25.3207 38.6744 25.4285 39.2151 25.7953 39.5603L27.1523 40.8385H5.85938C3.92109 40.8385 2.34375 39.2528 2.34375 37.3044ZM20.7422 43.1945H27.5391C27.4863 43.4113 27.4301 43.6269 27.3855 43.846L24.4547 44.534C23.966 44.6482 23.6039 45.0629 23.5547 45.5647C23.4773 46.3587 23.4375 47.1468 23.4375 47.9067C23.4375 48.6665 23.4773 49.4534 23.5559 50.2486C23.6051 50.7504 23.9672 51.1651 24.4559 51.2794L27.3867 51.9673C27.5133 52.5858 27.6891 53.1925 27.873 53.7968H16.9078L20.7422 43.1945ZM12.8906 58.5089C11.3625 58.5089 10.0594 57.5241 9.57539 56.1529H25.9008L25.7941 56.253C25.4285 56.597 25.3207 57.1377 25.527 57.5983C25.6664 57.9081 25.8398 58.205 25.9934 58.5089H12.8906ZM67.9289 49.1813L65.0848 49.8492C64.623 49.9576 64.2727 50.3346 64.1953 50.8046C64.0102 51.932 63.7137 53.0464 63.3141 54.1161C63.1477 54.5614 63.2648 55.0644 63.6105 55.3895L65.727 57.3839C65.3508 58.1402 64.9242 58.8777 64.4578 59.5868L61.7027 58.7445C61.248 58.6044 60.757 58.7551 60.457 59.1227C59.7328 60.0086 58.9172 60.8285 58.0324 61.56C57.6668 61.8628 57.5191 62.3564 57.6562 62.8123L58.4941 65.5818C57.7863 66.0519 57.0539 66.4795 56.3027 66.8588L54.3199 64.7301C53.9965 64.3826 53.4926 64.2648 53.0531 64.4333C51.9926 64.8338 50.884 65.1318 49.7578 65.3191C49.2902 65.3969 48.9152 65.7491 48.8074 66.2133L48.1441 69.0723C47.2816 69.1254 46.4707 69.1254 45.6082 69.0723L44.9449 66.2133C44.8371 65.7491 44.4633 65.3969 43.9945 65.3191C42.8684 65.1318 41.7609 64.8326 40.6992 64.4333C40.2574 64.266 39.7547 64.3826 39.4324 64.7301L37.4496 66.8588C36.6961 66.4795 35.9625 66.0519 35.257 65.5818L36.0961 62.8135C36.2332 62.3576 36.0844 61.864 35.7199 61.5612C34.8363 60.8308 34.0207 60.0109 33.2953 59.1239C32.9941 58.7563 32.502 58.6067 32.0496 58.7457L29.2945 59.5868C28.827 58.8765 28.4016 58.1402 28.0242 57.3839L30.1418 55.3895C30.4875 55.0644 30.6047 54.5614 30.4383 54.1161C30.0387 53.0452 29.7422 51.9308 29.557 50.8034C29.4809 50.3334 29.1293 49.9564 28.6676 49.8481L25.8234 49.1801C25.7953 48.749 25.7812 48.3225 25.7812 47.9067C25.7812 47.4908 25.7953 47.0644 25.8211 46.632L28.6652 45.9641C29.127 45.8557 29.4773 45.4787 29.5547 45.0087C29.7398 43.8801 30.0363 42.7657 30.4359 41.6973C30.6035 41.252 30.4863 40.7489 30.1406 40.4226L28.023 38.4282C28.3992 37.6719 28.8258 36.9356 29.2922 36.2253L32.0473 37.0664C32.5008 37.2042 32.993 37.0546 33.293 36.6883C34.0184 35.8024 34.8328 34.9825 35.7176 34.2509C36.0832 33.9482 36.2309 33.4546 36.0938 32.9987L35.2559 30.2291C35.9637 29.7591 36.6961 29.3315 37.4473 28.9521L39.4301 31.0808C39.7523 31.4284 40.2551 31.545 40.6969 31.3777C41.7574 30.9772 42.866 30.6791 43.9922 30.4918C44.4598 30.4141 44.8348 30.0618 44.9426 29.5977L45.6059 26.7386C46.4684 26.6856 47.2793 26.6856 48.1418 26.7386L48.8051 29.5977C48.9129 30.0618 49.2867 30.4141 49.7555 30.4918C50.8816 30.6791 51.9891 30.9783 53.0508 31.3777C53.4902 31.545 53.9941 31.4272 54.3176 31.0808L56.3004 28.9521C57.0539 29.3315 57.7875 29.7591 58.493 30.2291L57.6539 32.9975C57.5168 33.4534 57.6656 33.947 58.0301 34.2497C58.9137 34.9801 59.7293 35.8 60.4547 36.6871C60.7559 37.0546 61.2469 37.2054 61.7004 37.0652L64.4555 36.2241C64.923 36.9345 65.3484 37.6707 65.7258 38.427L63.6082 40.4214C63.2625 40.7466 63.1453 41.2496 63.3117 41.6949C63.7113 42.7657 64.0078 43.8801 64.193 45.0075C64.2691 45.4776 64.6207 45.8545 65.0824 45.9629L67.9266 46.6309C67.9547 47.0644 67.9688 47.4908 67.9688 47.9067C67.9688 48.3225 67.9547 48.749 67.9289 49.1813Z" fill="#10FB60"/>
<path d="M55.0781 47.9066C55.0781 43.3593 51.3973 39.6603 46.875 39.6603C42.3527 39.6603 38.6719 43.3593 38.6719 47.9066C38.6719 52.4538 42.3527 56.1528 46.875 56.1528C51.3973 56.1528 55.0781 52.4538 55.0781 47.9066ZM46.875 53.7968C43.6441 53.7968 41.0156 51.1544 41.0156 47.9066C41.0156 44.6587 43.6441 42.0164 46.875 42.0164C50.1059 42.0164 52.7344 44.6587 52.7344 47.9066C52.7344 51.1544 50.1059 53.7968 46.875 53.7968Z" fill="#10FB60"/>
<path d="M37.377 41.0057L35.4797 39.6239C34.9863 40.3072 34.5527 41.0399 34.1895 41.8009L36.3023 42.8199C36.6047 42.1862 36.9668 41.5747 37.377 41.0057Z" fill="#10FB60"/>
<path d="M46.3135 36.1405L46.2033 33.7866C45.3631 33.8267 44.5229 33.9421 43.7061 34.1306L44.2322 36.4268C44.9143 36.2701 45.6139 36.1735 46.3135 36.1405Z" fill="#10FB60"/>
<path d="M55.6065 36.825L54.1487 38.6697C54.6971 39.1068 55.2104 39.5968 55.6745 40.1257L57.4323 38.5684C56.8768 37.9358 56.2628 37.3492 55.6065 36.825Z" fill="#10FB60"/>
<path d="M35.5829 51.0647L33.3235 51.6914C33.545 52.5019 33.845 53.2994 34.2129 54.0627L36.3235 53.0367C36.0165 52.4006 35.768 51.7362 35.5829 51.0647Z" fill="#10FB60"/>
<path d="M41.2947 37.5446L40.1756 35.4735C39.4396 35.8752 38.7353 36.3477 38.0791 36.8754L39.5463 38.7133C40.0924 38.2727 40.6806 37.8792 41.2947 37.5446Z" fill="#10FB60"/>
<path d="M58.4075 50.0106L60.7149 50.4288C60.8626 49.6042 60.9376 48.7559 60.9376 47.9065V47.8558L58.5938 47.9065C58.5938 48.6157 58.5305 49.3238 58.4075 50.0106Z" fill="#10FB60"/>
<path d="M47.4131 59.6752L47.5186 62.0283C48.36 61.9895 49.2002 61.8764 50.017 61.6891L49.4955 59.3926C48.8147 59.548 48.115 59.6434 47.4131 59.6752Z" fill="#10FB60"/>
<path d="M56.3601 54.8276L58.255 56.2144C58.7484 55.5322 59.1843 54.8005 59.5488 54.0394L57.4382 53.0167C57.1335 53.6494 56.7703 54.2597 56.3601 54.8276Z" fill="#10FB60"/>
<path d="M58.1612 44.7271L60.4206 44.0968C60.1968 43.2851 59.8944 42.4875 59.5241 41.7253L57.4182 42.7573C57.7252 43.3911 57.976 44.0532 58.1612 44.7271Z" fill="#10FB60"/>
<path d="M52.4355 58.279L53.5476 60.3525C54.2848 59.9531 54.9914 59.4831 55.6488 58.9541L54.1863 57.1138C53.6379 57.5532 53.0496 57.9456 52.4355 58.279Z" fill="#10FB60"/>
<path d="M41.3613 60.9154C42.1348 61.2476 42.9434 61.5092 43.7625 61.6953L44.277 59.3967C43.5961 59.2424 42.9246 59.0244 42.2813 58.7476L41.3613 60.9154Z" fill="#10FB60"/>
<path d="M38.0613 55.6699L36.2988 57.2225C36.8531 57.8575 37.466 58.4453 38.1234 58.9707L39.5812 57.1271C39.034 56.6901 38.5219 56.2 38.0613 55.6699Z" fill="#10FB60"/>
<path d="M52.3629 34.8869C51.5918 34.5571 50.7832 34.2968 49.9606 34.1118L49.4473 36.4101C50.1316 36.5644 50.8043 36.7812 51.4442 37.0557L52.3629 34.8869Z" fill="#10FB60"/>
<path d="M35.3379 45.8261L33.0305 45.4126C32.8852 46.2303 32.8125 47.0691 32.8125 47.9068V47.9327L35.1563 47.9068C35.1563 47.2082 35.2184 46.5071 35.3379 45.8261Z" fill="#10FB60"/>
<path d="M41.8442 11.733L40.1871 13.3987L42.8742 16.0999H28.125C24.8941 16.0999 22.2656 18.7422 22.2656 21.99V29.0581H24.6094V21.99C24.6094 20.0416 26.1867 18.456 28.125 18.456H42.8742L40.1871 21.1572L41.8442 22.8229L46.5317 18.1108C46.9899 17.6502 46.9899 16.9057 46.5317 16.4451L41.8442 11.733Z" fill="#10FB60"/>
<path d="M11.7188 10.2097H14.0625V12.5657H11.7188V10.2097Z" fill="#10FB60"/>
<path d="M16.4062 10.2097H18.75V12.5657H16.4062V10.2097Z" fill="#10FB60"/>
<path d="M21.0938 10.2097H23.4375V12.5657H21.0938V10.2097Z" fill="#10FB60"/>
</svg>
