<?xml version="1.0" encoding="utf-8"?>
<!-- Generator: Adobe Illustrator 25.2.3, SVG Export Plug-In . SVG Version: 6.00 Build 0)  -->
<svg version="1.1" id="Layer_1" xmlns="http://www.w3.org/2000/svg" xmlns:xlink="http://www.w3.org/1999/xlink" x="0px" y="0px"
	 viewBox="0 0 155.8 73" style="enable-background:new 0 0 155.8 73;" xml:space="preserve">
<style type="text/css">
	.st0{fill:#3C3C3B;}
	.st1{fill:#3850A1;}
</style>
<g>
	<path class="st0" d="M45.3,20.8H39V17h16.7v3.8h-6.4v17.5h-3.9V20.8z"/>
	<path class="st0" d="M70.1,33.7c-0.3,1.2-2.2,4.9-7.1,4.9c-4.6,0-7.9-3.3-7.9-8s3.3-8,7.9-8c4.3,0,7.6,3.3,7.6,7.7
		c0,0.5-0.1,0.8-0.1,1.1l-0.1,0.4H58.8c0.3,2.2,1.9,3.6,4.1,3.6c1.8,0,2.9-1,3.2-1.7H70.1L70.1,33.7z M66.7,29.1
		c-0.3-2-1.6-3.5-3.8-3.5c-2.3,0-3.6,1.5-4.1,3.5H66.7z"/>
	<path class="st0" d="M73.3,17h3.8v12.8l5.8-7h4.4l-6.4,7.6l6.7,7.9h-4.4L77.1,31v7.3h-3.8L73.3,17L73.3,17z"/>
	<path class="st0" d="M88.4,22.8h3.5l0.3,1.5h0.2c0.3-0.3,0.6-0.6,1-0.9c0.7-0.5,1.8-0.9,3.2-0.9c3.5,0,6.1,2.6,6.1,6.5v9.3h-3.8v-9
		c0-2-1.4-3.3-3.3-3.3c-2,0-3.3,1.4-3.3,3.3v9h-3.8L88.4,22.8L88.4,22.8z"/>
	<path class="st0" d="M105.8,16.7h4.1v3.6h-4.1V16.7z M105.9,22.8h3.8v15.5h-3.8V22.8z"/>
	<path class="st0" d="M113.2,17h3.8v12.8l5.8-7h4.4l-6.4,7.6l6.7,7.9h-4.4L117,31v7.3h-3.8L113.2,17L113.2,17z"/>
	<path class="st0" d="M142,33.7c-0.3,1.2-2.2,4.9-7.1,4.9c-4.6,0-7.9-3.3-7.9-8s3.3-8,7.9-8c4.3,0,7.6,3.3,7.6,7.7
		c0,0.5-0.1,0.8-0.1,1.1l-0.1,0.4h-11.5c0.3,2.2,1.9,3.6,4.1,3.6c1.8,0,2.9-1,3.2-1.7H142L142,33.7z M138.7,29.1
		c-0.3-2-1.6-3.5-3.8-3.5c-2.3,0-3.6,1.5-4.1,3.5H138.7z"/>
	<path class="st0" d="M145.1,22.8h3.2l0.3,1.4h0.1c0.2-0.2,0.4-0.5,0.7-0.7c0.5-0.3,1.1-0.7,2.1-0.7h3v3.6h-2.7
		c-1.9,0-2.9,1-2.9,2.9v9h-3.8L145.1,22.8L145.1,22.8z"/>
	<path class="st1" d="M0.5,9v8h14.7v21.2h9.1V17V9h-9.1H0.5z"/>
	<path class="st1" d="M39,1H24.3v8H39V1z"/>
	<path class="st0" d="M38.9,45.3h0.9l1.5,2.5l1.5-2.5h0.9v5.4h-0.9v-3.9l-1.6,2.5h0l-1.6-2.5v3.8h-0.9
		C38.9,50.7,38.9,45.3,38.9,45.3z"/>
	<path class="st0" d="M44.9,45.3h3.7v0.8h-2.8v1.4h2.5v0.8h-2.5v1.4h2.9v0.8h-3.7V45.3z"/>
	<path class="st0" d="M49.4,45.3h0.9l1.5,2.5l1.5-2.5h0.9v5.4h-0.9v-3.9l-1.6,2.5h0l-1.6-2.5v3.8h-0.9V45.3z"/>
	<path class="st0" d="M55.4,45.3h2.2c0.6,0,1,0.2,1.3,0.5c0.2,0.2,0.3,0.5,0.3,0.9v0c0,0.6-0.3,1-0.7,1.2c0.6,0.2,1,0.6,1,1.3v0
		c0,1-0.7,1.5-1.8,1.5h-2.3L55.4,45.3L55.4,45.3z M58.4,46.8c0-0.4-0.3-0.7-0.9-0.7h-1.3v1.4h1.2C58,47.6,58.4,47.3,58.4,46.8
		L58.4,46.8z M57.7,48.4h-1.4v1.5h1.5c0.6,0,1-0.3,1-0.7v0C58.7,48.6,58.3,48.4,57.7,48.4z"/>
	<path class="st0" d="M60.3,45.3H64v0.8h-2.8v1.4h2.5v0.8h-2.5v1.4h2.9v0.8h-3.7V45.3z"/>
	<path class="st0" d="M64.9,45.3h2.2c0.6,0,1.1,0.2,1.4,0.5c0.3,0.3,0.4,0.7,0.4,1.2v0c0,0.9-0.5,1.4-1.2,1.6l1.3,2h-1l-1.2-1.9
		h-1.1v1.9h-0.9V45.3z M67.1,48c0.6,0,1-0.4,1-0.9v0c0-0.6-0.4-0.9-1-0.9h-1.3V48C65.8,48,67.1,48,67.1,48z"/>
	<path class="st0" d="M71.5,48L71.5,48c0-1.5,1.1-2.8,2.6-2.8c1.5,0,2.6,1.3,2.6,2.8v0c0,1.5-1.1,2.8-2.6,2.8
		C72.6,50.8,71.5,49.5,71.5,48z M75.8,48L75.8,48c0-1.1-0.7-1.9-1.7-1.9c-1,0-1.7,0.9-1.7,1.9v0c0,1,0.7,1.9,1.7,1.9
		C75.1,49.9,75.8,49.1,75.8,48z"/>
	<path class="st0" d="M77.6,45.3h3.7v0.9h-2.8v1.5H81v0.9h-2.5v2.2h-0.9V45.3z"/>
	<path class="st0" d="M84,45.3h2.2c0.6,0,1,0.2,1.3,0.5c0.2,0.2,0.3,0.5,0.3,0.9v0c0,0.6-0.3,1-0.7,1.2c0.6,0.2,1,0.6,1,1.3v0
		c0,1-0.7,1.5-1.8,1.5H84V45.3L84,45.3z M87,46.8c0-0.4-0.3-0.7-0.9-0.7h-1.3v1.4H86C86.6,47.6,87,47.3,87,46.8L87,46.8L87,46.8z
		 M86.2,48.4h-1.4v1.5h1.5c0.6,0,1-0.3,1-0.7v0C87.3,48.6,86.9,48.4,86.2,48.4z"/>
	<path class="st0" d="M90.7,45.3h0.8l2.2,5.4h-0.9l-0.5-1.3h-2.4l-0.5,1.3h-0.9L90.7,45.3z M91.9,48.5l-0.9-2.1l-0.9,2.1H91.9z"/>
	<path class="st0" d="M93.9,49.9l0.5-0.7c0.5,0.4,1,0.7,1.6,0.7c0.5,0,0.9-0.3,0.9-0.7v0c0-0.4-0.2-0.6-1.1-0.8
		c-1.1-0.3-1.7-0.6-1.7-1.6v0c0-0.9,0.7-1.6,1.7-1.6c0.7,0,1.3,0.2,1.8,0.7l-0.5,0.7c-0.4-0.4-0.9-0.6-1.4-0.6
		c-0.5,0-0.8,0.3-0.8,0.6v0c0,0.4,0.2,0.6,1.2,0.8c1.1,0.3,1.6,0.7,1.6,1.6v0c0,1-0.7,1.6-1.8,1.6C95.2,50.8,94.5,50.5,93.9,49.9z"
		/>
	<path class="st0" d="M103.1,50.8l-0.6-0.6c-0.4,0.3-0.9,0.5-1.5,0.5c-1.5,0-2.6-1.3-2.6-2.8v0c0-1.5,1.1-2.8,2.6-2.8
		c1.5,0,2.6,1.3,2.6,2.8v0c0,0.6-0.2,1.2-0.5,1.7l0.6,0.5L103.1,50.8z M101.8,49.6l-0.9-0.8l0.6-0.7l0.9,0.9c0.2-0.3,0.2-0.6,0.2-1
		v0c0-1-0.7-1.9-1.7-1.9s-1.7,0.9-1.7,1.9v0c0,1,0.7,1.9,1.7,1.9C101.3,49.9,101.6,49.8,101.8,49.6z"/>
	<path class="st0" d="M104.3,48.4v-3.1h0.9v3.1c0,1,0.5,1.5,1.3,1.5c0.8,0,1.3-0.5,1.3-1.5v-3.1h0.9v3c0,1.6-0.8,2.4-2.1,2.4
		C105.2,50.8,104.3,50,104.3,48.4z"/>
	<path class="st0" d="M109.6,45.3h3.7v0.8h-2.8v1.4h2.5v0.8h-2.5v1.4h2.9v0.8h-3.7V45.3z"/>
	<path class="st0" d="M116.1,45.3h2.2c0.6,0,1.1,0.2,1.4,0.5c0.3,0.3,0.4,0.7,0.4,1.2v0c0,0.9-0.5,1.4-1.2,1.6l1.3,2h-1l-1.2-1.9
		H117v1.9h-0.9L116.1,45.3L116.1,45.3z M118.2,48c0.6,0,1-0.4,1-0.9v0c0-0.6-0.4-0.9-1-0.9H117V48C117,48,118.2,48,118.2,48z"/>
	<path class="st0" d="M121,45.3h3.7v0.8h-2.8v1.4h2.5v0.8h-2.5v1.4h2.9v0.8H121V45.3z"/>
	<path class="st0" d="M125.2,49.9l0.5-0.7c0.5,0.4,1,0.7,1.6,0.7c0.5,0,0.9-0.3,0.9-0.7v0c0-0.4-0.2-0.6-1.1-0.8
		c-1.1-0.3-1.7-0.6-1.7-1.6v0c0-0.9,0.7-1.6,1.7-1.6c0.7,0,1.3,0.2,1.8,0.7l-0.5,0.7c-0.4-0.4-0.9-0.6-1.4-0.6
		c-0.5,0-0.8,0.3-0.8,0.6v0c0,0.4,0.2,0.6,1.2,0.8c1.1,0.3,1.6,0.7,1.6,1.6v0c0,1-0.7,1.6-1.8,1.6C126.6,50.8,125.8,50.5,125.2,49.9
		z"/>
	<path class="st0" d="M129.9,45.3h3.7v0.8h-2.8v1.4h2.5v0.8h-2.5v1.4h2.9v0.8h-3.7V45.3z"/>
	<path class="st0" d="M136.3,45.3h0.8l2.2,5.4h-0.9l-0.5-1.3h-2.4l-0.5,1.3h-0.9L136.3,45.3z M137.5,48.5l-0.9-2.1l-0.9,2.1H137.5z"
		/>
	<path class="st0" d="M139.9,45.3h2.2c0.6,0,1.1,0.2,1.4,0.5c0.3,0.3,0.4,0.7,0.4,1.2v0c0,0.9-0.5,1.4-1.2,1.6l1.3,2h-1l-1.2-1.9
		h-1.1v1.9h-0.9L139.9,45.3L139.9,45.3z M142.1,48c0.6,0,1-0.4,1-0.9v0c0-0.6-0.4-0.9-1-0.9h-1.3V48C140.8,48,142.1,48,142.1,48z"/>
	<path class="st0" d="M144.6,48L144.6,48c0-1.5,1.1-2.8,2.6-2.8c0.9,0,1.5,0.3,2,0.8l-0.6,0.7c-0.4-0.4-0.8-0.7-1.4-0.7
		c-0.9,0-1.6,0.8-1.6,1.9v0c0,1.1,0.7,1.9,1.6,1.9c0.6,0,1-0.3,1.4-0.7l0.6,0.6c-0.5,0.6-1.1,1-2,1C145.7,50.8,144.6,49.5,144.6,48z
		"/>
	<path class="st0" d="M150,45.3h0.9v2.2h2.4v-2.2h0.9v5.4h-0.9v-2.3h-2.4v2.3H150V45.3z"/>
	<path class="st0" d="M41.7,58.6c-0.4,0.4-0.9,0.7-1.5,0.7c-0.9,0-1.6-0.6-1.6-1.5v0c0-0.7,0.4-1.2,1.1-1.5
		c-0.3-0.4-0.4-0.7-0.4-1.1v0c0-0.7,0.5-1.4,1.4-1.4c0.8,0,1.3,0.6,1.3,1.3v0c0,0.7-0.4,1.1-1.1,1.4l0.9,0.9c0.2-0.3,0.4-0.7,0.5-1
		l0.7,0.4c-0.2,0.4-0.4,0.9-0.7,1.2l0.8,0.9l-0.7,0.5L41.7,58.6z M41.2,58l-1.1-1.2c-0.5,0.2-0.7,0.5-0.7,0.9v0
		c0,0.5,0.3,0.8,0.8,0.8C40.6,58.5,40.9,58.3,41.2,58z M41.2,55.1L41.2,55.1c0-0.4-0.2-0.6-0.6-0.6c-0.4,0-0.6,0.3-0.6,0.6v0
		c0,0.3,0.1,0.5,0.4,0.8C40.9,55.7,41.2,55.5,41.2,55.1z"/>
	<path class="st0" d="M46.5,54.7h-1.6v-0.9h4v0.9h-1.6v4.5h-0.9V54.7z"/>
	<path class="st0" d="M49.7,53.8h3.7v0.8h-2.8v1.4h2.5v0.8h-2.5v1.4h2.9v0.8h-3.7V53.8z"/>
	<path class="st0" d="M54,56.5L54,56.5c0-1.5,1.1-2.8,2.6-2.8c0.9,0,1.5,0.3,2,0.8L58,55.3c-0.4-0.4-0.8-0.7-1.4-0.7
		c-0.9,0-1.6,0.8-1.6,1.9v0c0,1.1,0.7,1.9,1.6,1.9c0.6,0,1-0.3,1.4-0.7l0.6,0.6c-0.5,0.6-1.1,1-2,1C55.1,59.3,54,58.1,54,56.5z"/>
	<path class="st0" d="M59.4,53.8h0.9v2.2h2.4v-2.2h0.9v5.4h-0.9v-2.3h-2.4v2.3h-0.9V53.8z"/>
	<path class="st0" d="M64.8,53.8h0.8l2.7,3.7v-3.7h0.9v5.4h-0.7l-2.7-3.8v3.8h-0.9C64.8,59.2,64.8,53.8,64.8,53.8z"/>
	<path class="st0" d="M70.1,56.5L70.1,56.5c0-1.5,1.1-2.8,2.6-2.8c1.5,0,2.6,1.3,2.6,2.8v0c0,1.5-1.1,2.8-2.6,2.8
		C71.2,59.3,70.1,58,70.1,56.5z M74.4,56.5L74.4,56.5c0-1.1-0.7-1.9-1.7-1.9S71,55.5,71,56.5v0c0,1,0.7,1.9,1.7,1.9
		C73.7,58.4,74.4,57.6,74.4,56.5z"/>
	<path class="st0" d="M76.3,53.8h0.9v4.5h2.6v0.9h-3.5L76.3,53.8L76.3,53.8z"/>
	<path class="st0" d="M80.2,56.5L80.2,56.5c0-1.5,1.1-2.8,2.6-2.8c1.5,0,2.6,1.3,2.6,2.8v0c0,1.5-1.1,2.8-2.6,2.8S80.2,58,80.2,56.5
		z M84.4,56.5L84.4,56.5c0-1.1-0.7-1.9-1.7-1.9c-1,0-1.7,0.9-1.7,1.9v0c0,1,0.7,1.9,1.7,1.9S84.4,57.6,84.4,56.5z"/>
	<path class="st0" d="M86.1,56.5L86.1,56.5c0-1.5,1.1-2.8,2.6-2.8c0.9,0,1.4,0.3,1.9,0.7l-0.6,0.7c-0.4-0.4-0.8-0.6-1.4-0.6
		c-0.9,0-1.6,0.9-1.6,1.9v0c0,1.1,0.7,1.9,1.7,1.9c0.5,0,0.9-0.2,1.2-0.4v-1h-1.3v-0.8h2.1v2.3c-0.5,0.5-1.2,0.8-2.1,0.8
		C87.2,59.3,86.1,58.1,86.1,56.5z"/>
	<path class="st0" d="M93.3,57.1l-2-3.3h1l1.4,2.4l1.4-2.4h1l-2,3.2v2.1h-0.9L93.3,57.1L93.3,57.1z"/>
	<path class="st0" d="M100.4,53.8h0.8l2.2,5.4h-0.9l-0.5-1.3h-2.4l-0.5,1.3h-0.9L100.4,53.8z M101.6,57.1l-0.9-2.1l-0.9,2.1H101.6z"
		/>
	<path class="st0" d="M104,53.8h0.9v4.5h2.6v0.9H104V53.8z"/>
	<path class="st0" d="M108.2,53.8h0.9v4.5h2.6v0.9h-3.5V53.8z"/>
	<path class="st0" d="M113.3,53.8h-0.9v5.4h0.9V53.8z"/>
	<path class="st0" d="M116.2,53.8h0.8l2.2,5.4h-0.9l-0.5-1.3h-2.4l-0.5,1.3H114L116.2,53.8z M117.5,57.1l-0.9-2.1l-0.9,2.1H117.5z"
		/>
	<path class="st0" d="M119.9,53.8h0.8l2.7,3.7v-3.7h0.9v5.4h-0.7l-2.7-3.8v3.8h-0.9L119.9,53.8L119.9,53.8z"/>
	<path class="st0" d="M125.1,56.5L125.1,56.5c0-1.5,1.1-2.8,2.6-2.8c0.9,0,1.5,0.3,2,0.8l-0.6,0.7c-0.4-0.4-0.8-0.7-1.4-0.7
		c-0.9,0-1.6,0.8-1.6,1.9v0c0,1.1,0.7,1.9,1.6,1.9c0.6,0,1-0.3,1.4-0.7l0.6,0.6c-0.5,0.6-1.1,1-2,1
		C126.2,59.3,125.1,58.1,125.1,56.5z"/>
	<path class="st0" d="M130.3,53.8h3.7v0.8h-2.8v1.4h2.5v0.8h-2.5v1.4h2.9v0.8h-3.7L130.3,53.8L130.3,53.8z"/>
</g>
</svg>
