<?xml version="1.0" encoding="utf-8"?>
<!-- Generator: Adobe Illustrator 16.0.0, SVG Export Plug-In . SVG Version: 6.00 Build 0)  -->
<!DOCTYPE svg PUBLIC "-//W3C//DTD SVG 1.1//EN" "http://www.w3.org/Graphics/SVG/1.1/DTD/svg11.dtd" [
	<!ENTITY ns_extend "http://ns.adobe.com/Extensibility/1.0/">
	<!ENTITY ns_ai "http://ns.adobe.com/AdobeIllustrator/10.0/">
	<!ENTITY ns_graphs "http://ns.adobe.com/Graphs/1.0/">
	<!ENTITY ns_vars "http://ns.adobe.com/Variables/1.0/">
	<!ENTITY ns_imrep "http://ns.adobe.com/ImageReplacement/1.0/">
	<!ENTITY ns_sfw "http://ns.adobe.com/SaveForWeb/1.0/">
	<!ENTITY ns_custom "http://ns.adobe.com/GenericCustomNamespace/1.0/">
	<!ENTITY ns_adobe_xpath "http://ns.adobe.com/XPath/1.0/">
]>
<svg version="1.1" id="Layer_1" xmlns:x="&ns_extend;" xmlns:i="&ns_ai;" xmlns:graph="&ns_graphs;"
	 xmlns="http://www.w3.org/2000/svg" xmlns:xlink="http://www.w3.org/1999/xlink" x="0px" y="0px" width="205px" height="73px"
	 viewBox="0 0 205 73" enable-background="new 0 0 205 73" xml:space="preserve">
<metadata>
	<sfw  xmlns="&ns_sfw;">
		<slices></slices>
		<sliceSourceBounds  width="156.999" height="54.737" y="-11.869" x="-40.376" bottomLeftOrigin="true"></sliceSourceBounds>
	</sfw>
</metadata>
<g>
	<path fill="#231F20" d="M51.006,12.073c-1.858-2.015-4.373-3.252-7.14-3.252c-5.724,0-10.363,5.29-10.363,11.812
		c0,6.521,4.64,11.811,10.363,11.811c1.749,0,3.404-0.496,4.849-1.366l-0.103,9.048c-1.723,0.537-3.553,0.825-5.438,0.825
		C32.584,40.951,24,31.855,24,20.634C24,9.41,32.584,0.312,43.174,0.312c7.712,0,14.359,4.828,17.405,11.787L51.006,12.073z"/>
	<path fill="#DF273E" d="M45.143,17.736v8.287h9.137v10.989c0,0,4.125-3.315,6.63-8.927c1.662-3.728,1.435-10.363,1.435-10.363
		L45.143,17.736z"/>
	<polygon fill="#231F20" points="74.809,32.861 89.308,32.861 89.308,40.118 74.794,40.118 66.287,40.118 66.287,7.99 74.852,7.99 	
		"/>
	<path fill="#231F20" d="M121.445,8.073l-0.015,20.221c0,6.896-5.59,12.485-12.486,12.485h-3.219
		c-6.895,0-12.484-5.589-12.484-12.485V8.073h8.259v21.584c0,0,0.545,4.078,5.726,3.966c5.176-0.112,5.396-3.745,5.396-3.745V7.964
		L121.445,8.073z"/>
	<path fill="#231F20" d="M143.565,7.964h-8.59l-11.893,32.263h8.479l2.203-5.615h11.123l1.979,5.727h8.812L143.565,7.964z
		 M135.638,28.445l3.633-11.121l3.633,11.121H135.638z"/>
	<polygon fill="#231F20" points="166.097,32.861 180.597,32.861 180.597,40.118 166.082,40.118 157.574,40.118 157.574,7.99 
		166.14,7.99 	"/>
	<polygon fill="#231F20" points="66.032,54.892 66.517,54.892 66.517,51.312 69.538,51.312 69.538,54.892 70.021,54.892 
		70.021,47.503 69.538,47.503 69.538,50.713 66.517,50.713 66.517,47.503 66.032,47.503 	"/>
	<polygon fill="#231F20" points="80.525,54.892 81.012,54.892 81.012,51.851 83.019,47.503 82.44,47.503 80.775,51.25 
		79.102,47.503 78.523,47.503 80.525,51.851 	"/>
	<path fill="#231F20" d="M91.995,48.102h1.033c0.727-0.013,1.26,0.228,1.597,0.719s0.502,1.283,0.499,2.379
		c0.004,1.095-0.161,1.889-0.499,2.378c-0.337,0.491-0.871,0.729-1.597,0.718h-1.033V48.102z M91.511,54.892h1.761
		c0.767-0.022,1.349-0.345,1.743-0.957c0.394-0.613,0.593-1.525,0.594-2.735c-0.001-1.21-0.2-2.123-0.594-2.735
		c-0.395-0.616-0.977-0.936-1.743-0.959h-1.761V54.892z"/>
	<path fill="#231F20" d="M104.438,54.892h0.484v-3.28h1.84c0.301-0.01,0.521,0.091,0.662,0.3c0.143,0.209,0.234,0.479,0.277,0.809
		c0.044,0.33,0.068,0.673,0.079,1.024c0.005,0.166,0.014,0.359,0.026,0.583c0.017,0.223,0.051,0.412,0.109,0.564h0.533
		c-0.07-0.133-0.119-0.312-0.151-0.543c-0.03-0.231-0.05-0.47-0.061-0.718c-0.009-0.245-0.017-0.457-0.022-0.633
		c-0.011-0.447-0.08-0.818-0.21-1.116c-0.129-0.299-0.354-0.481-0.681-0.549v-0.021c0.329-0.103,0.576-0.321,0.742-0.663
		c0.166-0.338,0.248-0.746,0.25-1.219c-0.012-0.665-0.168-1.153-0.459-1.465c-0.293-0.312-0.655-0.464-1.088-0.462h-2.328v7.389
		H104.438z M104.923,48.102h1.809c0.365,0.007,0.639,0.141,0.822,0.398c0.186,0.261,0.276,0.617,0.276,1.071
		c-0.007,0.456-0.118,0.81-0.327,1.059c-0.208,0.251-0.466,0.378-0.771,0.383h-1.81L104.923,48.102L104.923,48.102z"/>
	<path fill="#231F20" d="M116.672,54.892h0.521l0.615-2.297h2.314l0.621,2.297h0.52l-1.994-7.387h-0.543L116.672,54.892z
		 M118.974,48.205l0.984,3.791h-2.002L118.974,48.205z"/>
	<path fill="#231F20" d="M129.72,52.233c-0.002,0.515,0.064,0.982,0.197,1.406c0.137,0.423,0.346,0.763,0.639,1.018
		c0.289,0.253,0.67,0.385,1.14,0.393c0.469-0.008,0.85-0.14,1.144-0.393c0.291-0.255,0.504-0.595,0.639-1.018
		c0.133-0.424,0.201-0.893,0.197-1.406v-4.729h-0.484v4.577c0,0.849-0.131,1.457-0.393,1.829c-0.262,0.366-0.631,0.549-1.104,0.54
		c-0.471,0.009-0.838-0.174-1.1-0.54c-0.26-0.371-0.39-0.979-0.391-1.829v-4.577h-0.486v4.729H129.72z"/>
	<polygon fill="#231F20" points="142.699,54.892 146.034,54.892 146.034,54.293 143.183,54.293 143.183,47.503 142.699,47.503 	"/>
	<rect x="154.61" y="47.503" fill="#231F20" width="0.484" height="7.389"/>
	<path fill="#231F20" d="M168.407,49.738c-0.047-0.518-0.174-0.952-0.373-1.309c-0.199-0.354-0.448-0.624-0.741-0.805
		c-0.294-0.184-0.604-0.274-0.93-0.276c-0.533,0.01-0.979,0.195-1.334,0.549c-0.356,0.356-0.624,0.826-0.802,1.407
		c-0.176,0.579-0.266,1.212-0.266,1.896c0,0.683,0.09,1.314,0.266,1.895c0.178,0.581,0.444,1.049,0.802,1.407
		c0.354,0.354,0.801,0.537,1.334,0.547c0.6-0.01,1.086-0.278,1.454-0.805c0.367-0.527,0.589-1.247,0.662-2.164h-0.483
		c-0.051,0.675-0.216,1.232-0.499,1.68c-0.282,0.444-0.66,0.675-1.134,0.691c-0.446-0.012-0.813-0.173-1.097-0.484
		c-0.28-0.312-0.49-0.715-0.623-1.206c-0.135-0.491-0.201-1.011-0.198-1.56c-0.003-0.549,0.063-1.068,0.198-1.562
		c0.133-0.493,0.342-0.894,0.623-1.205c0.283-0.312,0.649-0.476,1.097-0.484c0.378,0.004,0.709,0.16,0.995,0.469
		c0.281,0.309,0.472,0.751,0.563,1.321L168.407,49.738L168.407,49.738z"/>
	<path fill="#231F20" d="M177.024,52.462c-0.017,0.598,0.062,1.089,0.232,1.471c0.17,0.381,0.412,0.664,0.723,0.846
		s0.67,0.271,1.074,0.27c0.59-0.016,1.026-0.159,1.305-0.434c0.279-0.271,0.459-0.572,0.535-0.901
		c0.08-0.331,0.113-0.589,0.104-0.774c-0.009-0.593-0.138-1.035-0.388-1.32c-0.249-0.289-0.559-0.496-0.93-0.624l-1.24-0.443
		c-0.213-0.068-0.393-0.188-0.539-0.361c-0.146-0.172-0.225-0.428-0.229-0.771c0.011-0.54,0.142-0.923,0.39-1.146
		c0.248-0.223,0.543-0.331,0.887-0.323c0.369,0.002,0.688,0.144,0.953,0.427c0.266,0.284,0.41,0.707,0.436,1.271h0.484
		c-0.002-0.503-0.09-0.925-0.262-1.265c-0.172-0.341-0.399-0.598-0.685-0.771c-0.282-0.174-0.597-0.259-0.935-0.261
		c-0.476,0.015-0.838,0.141-1.092,0.38c-0.256,0.238-0.431,0.521-0.527,0.84c-0.096,0.318-0.141,0.606-0.137,0.859
		c0.012,0.562,0.127,0.978,0.35,1.239s0.488,0.442,0.798,0.541l1.134,0.403c0.162,0.055,0.321,0.133,0.479,0.235
		c0.159,0.103,0.293,0.242,0.401,0.419c0.105,0.178,0.162,0.404,0.166,0.685c-0.008,0.355-0.082,0.645-0.23,0.864
		c-0.145,0.224-0.322,0.383-0.528,0.484c-0.206,0.101-0.401,0.15-0.588,0.149c-0.312,0.003-0.594-0.056-0.848-0.179
		c-0.253-0.121-0.451-0.327-0.597-0.617c-0.148-0.289-0.22-0.688-0.217-1.19L177.024,52.462L177.024,52.462z"/>
</g>
</svg>
